<?xml version="1.0" encoding="UTF-8" standalone="no"?>
<!-- Created with Inkscape (http://www.inkscape.org/) -->

<svg
   xmlns:dc="http://purl.org/dc/elements/1.1/"
   xmlns:cc="http://creativecommons.org/ns#"
   xmlns:rdf="http://www.w3.org/1999/02/22-rdf-syntax-ns#"
   xmlns:svg="http://www.w3.org/2000/svg"
   xmlns="http://www.w3.org/2000/svg"
   xmlns:sodipodi="http://sodipodi.sourceforge.net/DTD/sodipodi-0.dtd"
   xmlns:inkscape="http://www.inkscape.org/namespaces/inkscape"
   width="210mm"
   height="297mm"
   viewBox="0 0 210 297"
   version="1.1"
   id="svg8"
   inkscape:version="0.92.4 5da689c313, 2019-01-14"
   sodipodi:docname="mr_flusp_feet.svg">
  <defs
     id="defs2" />
  <sodipodi:namedview
     id="base"
     pagecolor="#ffffff"
     bordercolor="#666666"
     borderopacity="1.0"
     inkscape:pageopacity="0.0"
     inkscape:pageshadow="2"
     inkscape:zoom="0.24748737"
     inkscape:cx="197.56838"
     inkscape:cy="132.10061"
     inkscape:document-units="mm"
     inkscape:current-layer="layer1"
     showgrid="false"
     inkscape:window-width="1366"
     inkscape:window-height="746"
     inkscape:window-x="0"
     inkscape:window-y="22"
     inkscape:window-maximized="1" />
  <metadata
     id="metadata5">
    <rdf:RDF>
      <cc:Work
         rdf:about="">
        <dc:format>image/svg+xml</dc:format>
        <dc:type
           rdf:resource="http://purl.org/dc/dcmitype/StillImage" />
        <dc:title />
      </cc:Work>
    </rdf:RDF>
  </metadata>
  <g
     inkscape:label="Camada 1"
     inkscape:groupmode="layer"
     id="layer1">
    <path
       inkscape:export-ydpi="293.84"
       inkscape:export-xdpi="293.84"
       inkscape:export-filename="/home/siqueira/Pictures/flusp.png"
       sodipodi:nodetypes="cc"
       inkscape:connector-curvature="0"
       id="path3333"
       d="m 109.13407,220.49152 c 10.64238,-2.86174 14.9041,12.19549 4.03648,15.11779"
       style="fill:none;stroke:#693a20;stroke-width:3.78468919;stroke-linecap:butt;stroke-linejoin:miter;stroke-miterlimit:4;stroke-dasharray:none;stroke-opacity:1" />
    <path
       inkscape:export-ydpi="293.84"
       inkscape:export-xdpi="293.84"
       inkscape:export-filename="/home/siqueira/Pictures/flusp.png"
       style="fill:none;stroke:#693a20;stroke-width:3.78468919;stroke-linecap:butt;stroke-linejoin:miter;stroke-miterlimit:4;stroke-dasharray:none;stroke-opacity:1"
       d="m 126.89624,220.49152 c 10.64238,-2.86174 14.9041,12.19549 4.03644,15.11779"
       id="path3335"
       inkscape:connector-curvature="0"
       sodipodi:nodetypes="cc" />
    <path
       inkscape:export-ydpi="293.84"
       inkscape:export-xdpi="293.84"
       inkscape:export-filename="/home/siqueira/Pictures/flusp.png"
       style="fill:none;stroke:#693a20;stroke-width:3.78468919;stroke-linecap:butt;stroke-linejoin:miter;stroke-miterlimit:4;stroke-dasharray:none;stroke-opacity:1"
       d="m 111.59279,221.12148 c 7.78703,-7.82212 18.98495,3.07402 11.03307,11.06168"
       id="path3371"
       inkscape:connector-curvature="0"
       sodipodi:nodetypes="cc" />
    <path
       inkscape:export-ydpi="293.84"
       inkscape:export-xdpi="293.84"
       inkscape:export-filename="/home/siqueira/Pictures/flusp.png"
       sodipodi:nodetypes="cc"
       inkscape:connector-curvature="0"
       id="path3373"
       d="m 130.17674,221.12148 c 7.78705,-7.82212 18.98496,3.07402 11.03307,11.06168"
       style="fill:none;stroke:#693a20;stroke-width:3.78468919;stroke-linecap:butt;stroke-linejoin:miter;stroke-miterlimit:4;stroke-dasharray:none;stroke-opacity:1" />
  </g>
</svg>
