<?xml version="1.0" encoding="UTF-8" standalone="no"?>
<!-- Created with Inkscape (http://www.inkscape.org/) -->

<svg
   xmlns:dc="http://purl.org/dc/elements/1.1/"
   xmlns:cc="http://creativecommons.org/ns#"
   xmlns:rdf="http://www.w3.org/1999/02/22-rdf-syntax-ns#"
   xmlns:svg="http://www.w3.org/2000/svg"
   xmlns="http://www.w3.org/2000/svg"
   xmlns:sodipodi="http://sodipodi.sourceforge.net/DTD/sodipodi-0.dtd"
   xmlns:inkscape="http://www.inkscape.org/namespaces/inkscape"
   width="256.19458mm"
   height="390.88727mm"
   viewBox="0 0 256.19458 390.88727"
   version="1.1"
   id="svg8"
   inkscape:version="0.92.4 (5da689c313, 2019-01-14)"
   sodipodi:docname="mr_flusp.svg">
  <defs
     id="defs2" />
  <sodipodi:namedview
     id="base"
     pagecolor="#ffffff"
     bordercolor="#666666"
     borderopacity="1.0"
     inkscape:pageopacity="0.0"
     inkscape:pageshadow="2"
     inkscape:zoom="0.98994952"
     inkscape:cx="260.52954"
     inkscape:cy="1120.7637"
     inkscape:document-units="mm"
     inkscape:current-layer="layer1"
     showgrid="false"
     inkscape:window-width="1920"
     inkscape:window-height="1009"
     inkscape:window-x="0"
     inkscape:window-y="34"
     inkscape:window-maximized="1"
     fit-margin-top="0"
     fit-margin-left="0"
     fit-margin-right="0"
     fit-margin-bottom="0" />
  <metadata
     id="metadata5">
    <rdf:RDF>
      <cc:Work
         rdf:about="">
        <dc:format>image/svg+xml</dc:format>
        <dc:type
           rdf:resource="http://purl.org/dc/dcmitype/StillImage" />
        <dc:title></dc:title>
      </cc:Work>
    </rdf:RDF>
  </metadata>
  <g
     inkscape:label="Layer 1"
     inkscape:groupmode="layer"
     id="layer1"
     transform="translate(26.104076,55.681719)">
    <g
       id="g788">
      <g
         style="stroke:none"
         transform="translate(-150.43452,-286.50595)"
         id="g4736" />
      <g
         transform="matrix(0.45523275,0.10638375,-0.10638375,0.45523275,443.06604,-61.834952)"
         id="g6699">
        <path
           inkscape:export-ydpi="293.84"
           inkscape:export-xdpi="293.84"
           inkscape:export-filename="/home/siqueira/Pictures/flusp.png"
           sodipodi:nodetypes="ccc"
           inkscape:connector-curvature="0"
           id="path6673"
           d="m -671.19721,404.48813 c 24.95971,1.60901 -7.27173,103.91676 -27.5689,104.90396 -24.95977,-1.60902 7.27173,-103.91676 27.5689,-104.90396 z"
           style="opacity:1;fill:#0095ad;fill-opacity:1;stroke:#000000;stroke-width:6.99999952;stroke-linecap:round;stroke-linejoin:round;stroke-miterlimit:4;stroke-dasharray:none;stroke-dashoffset:0;stroke-opacity:1" />
        <g
           id="g6679">
          <path
             style="opacity:1;fill:#0095ad;fill-opacity:1;stroke:#00ffff;stroke-width:6.99999857;stroke-linecap:round;stroke-linejoin:round;stroke-miterlimit:4;stroke-dasharray:none;stroke-dashoffset:0;stroke-opacity:1"
             d="m -697.1671,483.37922 a 5.0175308,12.200858 16.219874 0 0 -3.76994,12.73672 5.0175308,12.200858 16.219874 0 0 5.59899,5.54618 5.0175308,12.200858 16.219874 0 0 5.15339,-9.40379 5.0175308,12.200858 16.219874 0 1 -2.41917,3.00067 5.0175308,12.200858 16.219874 0 1 -5.59889,-5.54611 5.0175308,12.200858 16.219874 0 1 1.03562,-6.33367 z"
             id="path6675"
             inkscape:connector-curvature="0" />
          <ellipse
             ry="11.575169"
             rx="8.4714746"
             transform="matrix(0.75648119,-0.65401545,-0.02771511,0.99961586,0,0)"
             style="opacity:1;fill:#0095ad;fill-opacity:1;stroke:none;stroke-width:8.14799976;stroke-linecap:round;stroke-linejoin:round;stroke-miterlimit:4;stroke-dasharray:none;stroke-dashoffset:0;stroke-opacity:1"
             id="ellipse6677"
             cx="-921.7973"
             cy="-113.88794" />
        </g>
        <g
           transform="translate(0.52916667,-14.287503)"
           id="g6685">
          <path
             inkscape:connector-curvature="0"
             id="path6681"
             d="m -697.1671,483.37922 a 5.0175308,12.200858 16.219874 0 0 -3.76994,12.73672 5.0175308,12.200858 16.219874 0 0 5.59899,5.54618 5.0175308,12.200858 16.219874 0 0 5.15339,-9.40379 5.0175308,12.200858 16.219874 0 1 -2.41917,3.00067 5.0175308,12.200858 16.219874 0 1 -5.59889,-5.54611 5.0175308,12.200858 16.219874 0 1 1.03562,-6.33367 z"
             style="opacity:1;fill:#0095ad;fill-opacity:1;stroke:#00ffff;stroke-width:6.99999857;stroke-linecap:round;stroke-linejoin:round;stroke-miterlimit:4;stroke-dasharray:none;stroke-dashoffset:0;stroke-opacity:1" />
          <ellipse
             cy="-113.88794"
             cx="-921.7973"
             id="ellipse6683"
             style="opacity:1;fill:#0095ad;fill-opacity:1;stroke:none;stroke-width:8.14799976;stroke-linecap:round;stroke-linejoin:round;stroke-miterlimit:4;stroke-dasharray:none;stroke-dashoffset:0;stroke-opacity:1"
             transform="matrix(0.75648119,-0.65401545,-0.02771511,0.99961586,0,0)"
             rx="8.4714746"
             ry="11.575169" />
        </g>
        <g
           id="g6691"
           transform="translate(8.9958338,-15.345837)">
          <path
             style="opacity:1;fill:#0095ad;fill-opacity:1;stroke:#00ffff;stroke-width:6.99999857;stroke-linecap:round;stroke-linejoin:round;stroke-miterlimit:4;stroke-dasharray:none;stroke-dashoffset:0;stroke-opacity:1"
             d="m -697.1671,483.37922 a 5.0175308,12.200858 16.219874 0 0 -3.76994,12.73672 5.0175308,12.200858 16.219874 0 0 5.59899,5.54618 5.0175308,12.200858 16.219874 0 0 5.15339,-9.40379 5.0175308,12.200858 16.219874 0 1 -2.41917,3.00067 5.0175308,12.200858 16.219874 0 1 -5.59889,-5.54611 5.0175308,12.200858 16.219874 0 1 1.03562,-6.33367 z"
             id="path6687"
             inkscape:connector-curvature="0" />
          <ellipse
             ry="11.575169"
             rx="8.4714746"
             transform="matrix(0.75648119,-0.65401545,-0.02771511,0.99961586,0,0)"
             style="opacity:1;fill:#0095ad;fill-opacity:1;stroke:none;stroke-width:8.14799976;stroke-linecap:round;stroke-linejoin:round;stroke-miterlimit:4;stroke-dasharray:none;stroke-dashoffset:0;stroke-opacity:1"
             id="ellipse6689"
             cx="-921.7973"
             cy="-113.88794" />
        </g>
        <g
           transform="translate(8.9958338,-15.345837)"
           id="g6697">
          <path
             inkscape:connector-curvature="0"
             id="path6693"
             d="m -697.1671,483.37922 a 5.0175308,12.200858 16.219874 0 0 -3.76994,12.73672 5.0175308,12.200858 16.219874 0 0 5.59899,5.54618 5.0175308,12.200858 16.219874 0 0 5.15339,-9.40379 5.0175308,12.200858 16.219874 0 1 -2.41917,3.00067 5.0175308,12.200858 16.219874 0 1 -5.59889,-5.54611 5.0175308,12.200858 16.219874 0 1 1.03562,-6.33367 z"
             style="opacity:1;fill:#0095ad;fill-opacity:1;stroke:#00ffff;stroke-width:6.99999857;stroke-linecap:round;stroke-linejoin:round;stroke-miterlimit:4;stroke-dasharray:none;stroke-dashoffset:0;stroke-opacity:1" />
          <ellipse
             cy="-113.88794"
             cx="-921.7973"
             id="ellipse6695"
             style="opacity:1;fill:#0095ad;fill-opacity:1;stroke:none;stroke-width:8.14799976;stroke-linecap:round;stroke-linejoin:round;stroke-miterlimit:4;stroke-dasharray:none;stroke-dashoffset:0;stroke-opacity:1"
             transform="matrix(0.75648119,-0.65401545,-0.02771511,0.99961586,0,0)"
             rx="8.4714746"
             ry="11.575169" />
        </g>
      </g>
      <g
         transform="matrix(0.46688388,-0.02395437,0.02395437,0.46688388,394.497,-151.32097)"
         id="g6671">
        <path
           style="opacity:1;fill:#0095ad;fill-opacity:1;stroke:#000000;stroke-width:6.99999952;stroke-linecap:round;stroke-linejoin:round;stroke-miterlimit:4;stroke-dasharray:none;stroke-dashoffset:0;stroke-opacity:1"
           d="m -671.19721,404.48813 c 24.95971,1.60901 -7.27173,103.91676 -27.5689,104.90396 -24.95977,-1.60902 7.27173,-103.91676 27.5689,-104.90396 z"
           id="path6365"
           inkscape:connector-curvature="0"
           sodipodi:nodetypes="ccc"
           inkscape:export-filename="/home/siqueira/Pictures/flusp.png"
           inkscape:export-xdpi="293.84"
           inkscape:export-ydpi="293.84" />
        <g
           id="g6638">
          <path
             inkscape:connector-curvature="0"
             id="path6379"
             d="m -697.1671,483.37922 a 5.0175308,12.200858 16.219874 0 0 -3.76994,12.73672 5.0175308,12.200858 16.219874 0 0 5.59899,5.54618 5.0175308,12.200858 16.219874 0 0 5.15339,-9.40379 5.0175308,12.200858 16.219874 0 1 -2.41917,3.00067 5.0175308,12.200858 16.219874 0 1 -5.59889,-5.54611 5.0175308,12.200858 16.219874 0 1 1.03562,-6.33367 z"
             style="opacity:1;fill:#0095ad;fill-opacity:1;stroke:#00ffff;stroke-width:6.99999857;stroke-linecap:round;stroke-linejoin:round;stroke-miterlimit:4;stroke-dasharray:none;stroke-dashoffset:0;stroke-opacity:1" />
          <ellipse
             cy="-113.88794"
             cx="-921.7973"
             id="ellipse6381"
             style="opacity:1;fill:#0095ad;fill-opacity:1;stroke:none;stroke-width:8.14799976;stroke-linecap:round;stroke-linejoin:round;stroke-miterlimit:4;stroke-dasharray:none;stroke-dashoffset:0;stroke-opacity:1"
             transform="matrix(0.75648119,-0.65401545,-0.02771511,0.99961586,0,0)"
             rx="8.4714746"
             ry="11.575169" />
        </g>
        <g
           id="g6644"
           transform="translate(0.52916667,-14.287503)">
          <path
             style="opacity:1;fill:#0095ad;fill-opacity:1;stroke:#00ffff;stroke-width:6.99999857;stroke-linecap:round;stroke-linejoin:round;stroke-miterlimit:4;stroke-dasharray:none;stroke-dashoffset:0;stroke-opacity:1"
             d="m -697.1671,483.37922 a 5.0175308,12.200858 16.219874 0 0 -3.76994,12.73672 5.0175308,12.200858 16.219874 0 0 5.59899,5.54618 5.0175308,12.200858 16.219874 0 0 5.15339,-9.40379 5.0175308,12.200858 16.219874 0 1 -2.41917,3.00067 5.0175308,12.200858 16.219874 0 1 -5.59889,-5.54611 5.0175308,12.200858 16.219874 0 1 1.03562,-6.33367 z"
             id="path6640"
             inkscape:connector-curvature="0" />
          <ellipse
             ry="11.575169"
             rx="8.4714746"
             transform="matrix(0.75648119,-0.65401545,-0.02771511,0.99961586,0,0)"
             style="opacity:1;fill:#0095ad;fill-opacity:1;stroke:none;stroke-width:8.14799976;stroke-linecap:round;stroke-linejoin:round;stroke-miterlimit:4;stroke-dasharray:none;stroke-dashoffset:0;stroke-opacity:1"
             id="ellipse6642"
             cx="-921.7973"
             cy="-113.88794" />
        </g>
        <g
           transform="translate(8.9958338,-15.345837)"
           id="g6650">
          <path
             inkscape:connector-curvature="0"
             id="path6646"
             d="m -697.1671,483.37922 a 5.0175308,12.200858 16.219874 0 0 -3.76994,12.73672 5.0175308,12.200858 16.219874 0 0 5.59899,5.54618 5.0175308,12.200858 16.219874 0 0 5.15339,-9.40379 5.0175308,12.200858 16.219874 0 1 -2.41917,3.00067 5.0175308,12.200858 16.219874 0 1 -5.59889,-5.54611 5.0175308,12.200858 16.219874 0 1 1.03562,-6.33367 z"
             style="opacity:1;fill:#0095ad;fill-opacity:1;stroke:#00ffff;stroke-width:6.99999857;stroke-linecap:round;stroke-linejoin:round;stroke-miterlimit:4;stroke-dasharray:none;stroke-dashoffset:0;stroke-opacity:1" />
          <ellipse
             cy="-113.88794"
             cx="-921.7973"
             id="ellipse6648"
             style="opacity:1;fill:#0095ad;fill-opacity:1;stroke:none;stroke-width:8.14799976;stroke-linecap:round;stroke-linejoin:round;stroke-miterlimit:4;stroke-dasharray:none;stroke-dashoffset:0;stroke-opacity:1"
             transform="matrix(0.75648119,-0.65401545,-0.02771511,0.99961586,0,0)"
             rx="8.4714746"
             ry="11.575169" />
        </g>
        <g
           id="g6656"
           transform="translate(8.9958338,-15.345837)">
          <path
             style="opacity:1;fill:#0095ad;fill-opacity:1;stroke:#00ffff;stroke-width:6.99999857;stroke-linecap:round;stroke-linejoin:round;stroke-miterlimit:4;stroke-dasharray:none;stroke-dashoffset:0;stroke-opacity:1"
             d="m -697.1671,483.37922 a 5.0175308,12.200858 16.219874 0 0 -3.76994,12.73672 5.0175308,12.200858 16.219874 0 0 5.59899,5.54618 5.0175308,12.200858 16.219874 0 0 5.15339,-9.40379 5.0175308,12.200858 16.219874 0 1 -2.41917,3.00067 5.0175308,12.200858 16.219874 0 1 -5.59889,-5.54611 5.0175308,12.200858 16.219874 0 1 1.03562,-6.33367 z"
             id="path6652"
             inkscape:connector-curvature="0" />
          <ellipse
             ry="11.575169"
             rx="8.4714746"
             transform="matrix(0.75648119,-0.65401545,-0.02771511,0.99961586,0,0)"
             style="opacity:1;fill:#0095ad;fill-opacity:1;stroke:none;stroke-width:8.14799976;stroke-linecap:round;stroke-linejoin:round;stroke-miterlimit:4;stroke-dasharray:none;stroke-dashoffset:0;stroke-opacity:1"
             id="ellipse6654"
             cx="-921.7973"
             cy="-113.88794" />
        </g>
      </g>
      <g
         id="g7062"
         transform="matrix(0.44397264,-0.14643313,0.14643313,0.44397264,327.92815,-227.78183)">
        <path
           inkscape:export-ydpi="293.84"
           inkscape:export-xdpi="293.84"
           inkscape:export-filename="/home/siqueira/Pictures/flusp.png"
           sodipodi:nodetypes="ccc"
           inkscape:connector-curvature="0"
           id="path7036"
           d="m -671.19721,404.48813 c 24.95971,1.60901 -7.27173,103.91676 -27.5689,104.90396 -24.95977,-1.60902 7.27173,-103.91676 27.5689,-104.90396 z"
           style="opacity:1;fill:#0095ad;fill-opacity:1;stroke:#000000;stroke-width:6.99999952;stroke-linecap:round;stroke-linejoin:round;stroke-miterlimit:4;stroke-dasharray:none;stroke-dashoffset:0;stroke-opacity:1" />
        <g
           id="g7042">
          <path
             style="opacity:1;fill:#0095ad;fill-opacity:1;stroke:#00ffff;stroke-width:6.99999857;stroke-linecap:round;stroke-linejoin:round;stroke-miterlimit:4;stroke-dasharray:none;stroke-dashoffset:0;stroke-opacity:1"
             d="m -697.1671,483.37922 a 5.0175308,12.200858 16.219874 0 0 -3.76994,12.73672 5.0175308,12.200858 16.219874 0 0 5.59899,5.54618 5.0175308,12.200858 16.219874 0 0 5.15339,-9.40379 5.0175308,12.200858 16.219874 0 1 -2.41917,3.00067 5.0175308,12.200858 16.219874 0 1 -5.59889,-5.54611 5.0175308,12.200858 16.219874 0 1 1.03562,-6.33367 z"
             id="path7038"
             inkscape:connector-curvature="0" />
          <ellipse
             ry="11.575169"
             rx="8.4714746"
             transform="matrix(0.75648119,-0.65401545,-0.02771511,0.99961586,0,0)"
             style="opacity:1;fill:#0095ad;fill-opacity:1;stroke:none;stroke-width:8.14799976;stroke-linecap:round;stroke-linejoin:round;stroke-miterlimit:4;stroke-dasharray:none;stroke-dashoffset:0;stroke-opacity:1"
             id="ellipse7040"
             cx="-921.7973"
             cy="-113.88794" />
        </g>
        <g
           transform="translate(0.52916667,-14.287503)"
           id="g7048">
          <path
             inkscape:connector-curvature="0"
             id="path7044"
             d="m -697.1671,483.37922 a 5.0175308,12.200858 16.219874 0 0 -3.76994,12.73672 5.0175308,12.200858 16.219874 0 0 5.59899,5.54618 5.0175308,12.200858 16.219874 0 0 5.15339,-9.40379 5.0175308,12.200858 16.219874 0 1 -2.41917,3.00067 5.0175308,12.200858 16.219874 0 1 -5.59889,-5.54611 5.0175308,12.200858 16.219874 0 1 1.03562,-6.33367 z"
             style="opacity:1;fill:#0095ad;fill-opacity:1;stroke:#00ffff;stroke-width:6.99999857;stroke-linecap:round;stroke-linejoin:round;stroke-miterlimit:4;stroke-dasharray:none;stroke-dashoffset:0;stroke-opacity:1" />
          <ellipse
             cy="-113.88794"
             cx="-921.7973"
             id="ellipse7046"
             style="opacity:1;fill:#0095ad;fill-opacity:1;stroke:none;stroke-width:8.14799976;stroke-linecap:round;stroke-linejoin:round;stroke-miterlimit:4;stroke-dasharray:none;stroke-dashoffset:0;stroke-opacity:1"
             transform="matrix(0.75648119,-0.65401545,-0.02771511,0.99961586,0,0)"
             rx="8.4714746"
             ry="11.575169" />
        </g>
        <g
           id="g7054"
           transform="translate(8.9958338,-15.345837)">
          <path
             style="opacity:1;fill:#0095ad;fill-opacity:1;stroke:#00ffff;stroke-width:6.99999857;stroke-linecap:round;stroke-linejoin:round;stroke-miterlimit:4;stroke-dasharray:none;stroke-dashoffset:0;stroke-opacity:1"
             d="m -697.1671,483.37922 a 5.0175308,12.200858 16.219874 0 0 -3.76994,12.73672 5.0175308,12.200858 16.219874 0 0 5.59899,5.54618 5.0175308,12.200858 16.219874 0 0 5.15339,-9.40379 5.0175308,12.200858 16.219874 0 1 -2.41917,3.00067 5.0175308,12.200858 16.219874 0 1 -5.59889,-5.54611 5.0175308,12.200858 16.219874 0 1 1.03562,-6.33367 z"
             id="path7050"
             inkscape:connector-curvature="0" />
          <ellipse
             ry="11.575169"
             rx="8.4714746"
             transform="matrix(0.75648119,-0.65401545,-0.02771511,0.99961586,0,0)"
             style="opacity:1;fill:#0095ad;fill-opacity:1;stroke:none;stroke-width:8.14799976;stroke-linecap:round;stroke-linejoin:round;stroke-miterlimit:4;stroke-dasharray:none;stroke-dashoffset:0;stroke-opacity:1"
             id="ellipse7052"
             cx="-921.7973"
             cy="-113.88794" />
        </g>
        <g
           transform="translate(8.9958338,-15.345837)"
           id="g7060">
          <path
             inkscape:connector-curvature="0"
             id="path7056"
             d="m -697.1671,483.37922 a 5.0175308,12.200858 16.219874 0 0 -3.76994,12.73672 5.0175308,12.200858 16.219874 0 0 5.59899,5.54618 5.0175308,12.200858 16.219874 0 0 5.15339,-9.40379 5.0175308,12.200858 16.219874 0 1 -2.41917,3.00067 5.0175308,12.200858 16.219874 0 1 -5.59889,-5.54611 5.0175308,12.200858 16.219874 0 1 1.03562,-6.33367 z"
             style="opacity:1;fill:#0095ad;fill-opacity:1;stroke:#00ffff;stroke-width:6.99999857;stroke-linecap:round;stroke-linejoin:round;stroke-miterlimit:4;stroke-dasharray:none;stroke-dashoffset:0;stroke-opacity:1" />
          <ellipse
             cy="-113.88794"
             cx="-921.7973"
             id="ellipse7058"
             style="opacity:1;fill:#0095ad;fill-opacity:1;stroke:none;stroke-width:8.14799976;stroke-linecap:round;stroke-linejoin:round;stroke-miterlimit:4;stroke-dasharray:none;stroke-dashoffset:0;stroke-opacity:1"
             transform="matrix(0.75648119,-0.65401545,-0.02771511,0.99961586,0,0)"
             rx="8.4714746"
             ry="11.575169" />
        </g>
      </g>
      <path
         style="opacity:1;fill:#0095ad;fill-opacity:1;stroke:#000000;stroke-width:3.27248573;stroke-linecap:round;stroke-linejoin:round;stroke-miterlimit:4;stroke-dasharray:none;stroke-dashoffset:0;stroke-opacity:1"
         d="m 122.57655,26.835467 c 13.90161,1.152761 6.96032,47.052439 -4.36798,47.395143 -13.90166,-1.152719 -6.96031,-47.052406 4.36798,-47.395143 z"
         id="path3223"
         inkscape:connector-curvature="0"
         sodipodi:nodetypes="ccc"
         inkscape:export-filename="/home/siqueira/Pictures/flusp.png"
         inkscape:export-xdpi="293.84"
         inkscape:export-ydpi="293.84" />
      <path
         style="opacity:1;fill:#0095ad;fill-opacity:1;stroke:#000000;stroke-width:3.27248573;stroke-linecap:round;stroke-linejoin:round;stroke-miterlimit:4;stroke-dasharray:none;stroke-dashoffset:0;stroke-opacity:1"
         d="m 88.185626,22.160333 h 19.361384 c 21.22776,-7.224387 21.38992,31.786712 9.41844,45.628323 -11.97154,13.841647 -33.735849,11.269824 -42.156694,0 -9.482228,-12.69036 -4.826655,-51.838286 13.37687,-45.628323 z"
         id="path3227"
         inkscape:connector-curvature="0"
         sodipodi:nodetypes="cczac"
         inkscape:export-filename="/home/siqueira/Pictures/flusp.png"
         inkscape:export-xdpi="293.84"
         inkscape:export-ydpi="293.84" />
      <g
         id="g354">
        <path
           inkscape:export-ydpi="293.84"
           inkscape:export-xdpi="293.84"
           inkscape:export-filename="/home/siqueira/Pictures/flusp.png"
           sodipodi:nodetypes="sscccccsscs"
           inkscape:connector-curvature="0"
           id="path3231"
           d="m 68.368421,-8.5091434 c -0.656216,5.907384 0.08486,16.1300317 1.844625,22.0943244 3.099906,10.506255 9.360857,14.915916 16.713477,10.130644 2.790947,4.551271 5.754358,1.963323 7.417318,0 1.817385,3.904052 5.358243,2.954611 7.417319,0 1.14251,2.619812 4.22867,4.102056 7.41738,0 1.43052,3.416256 5.83389,3.26452 7.41733,0 10.78078,1.288551 8.4614,-2.349276 9.8853,-9.486801 0.17986,-0.901556 0.0298,-6.9511951 0.13755,-7.888566 0.57426,-4.9949495 6.81131,-7.24727067 6.89439,-11.2719842 C 132.75563,-49.646797 71.858481,-39.927145 68.368421,-8.5091434 Z"
           style="opacity:1;fill:#0095ad;fill-opacity:1;stroke:#000000;stroke-width:3.27248573;stroke-linecap:round;stroke-linejoin:round;stroke-miterlimit:4;stroke-dasharray:none;stroke-dashoffset:0;stroke-opacity:1" />
        <path
           inkscape:export-ydpi="293.84"
           inkscape:export-xdpi="293.84"
           inkscape:export-filename="/home/siqueira/Pictures/flusp.png"
           sodipodi:nodetypes="cccc"
           inkscape:connector-curvature="0"
           id="path3225"
           d="m 147.29804,-0.21939428 c -17.67579,-0.2829999 -21.58418,-3.83439512 -21.58418,12.84691028 14.85718,8.155975 23.32946,-0.35973 23.402,-11.0258093 0,-1.00888867 -0.81077,-1.82110098 -1.81782,-1.82110098 z"
           style="opacity:1;fill:#382810;fill-opacity:1;stroke:#000000;stroke-width:1.8699919;stroke-linecap:round;stroke-linejoin:round;stroke-miterlimit:4;stroke-dasharray:none;stroke-dashoffset:0;stroke-opacity:1" />
        <path
           sodipodi:nodetypes="ccccccc"
           inkscape:connector-curvature="0"
           id="path3233"
           d="m 125.75833,7.3960685 c 1.91495,2.255388 3.2287,4.7101635 3.23341,8.1106175 9e-5,4.757966 -3.85012,8.615081 -8.59958,8.614997 -2.98358,-0.0042 -5.75167,-1.557778 -7.31382,-4.104281 1.09847,0.493439 2.28812,0.750329 3.49195,0.75405 4.74931,-1.8e-5 8.59938,-3.856994 8.59939,-8.614814 -0.004,-1.593743 1.42541,-3.4050871 0.58865,-4.7605695 z"
           style="opacity:1;fill:#0095ad;fill-opacity:1;stroke:#000000;stroke-width:3.27248573;stroke-linecap:round;stroke-linejoin:round;stroke-miterlimit:4;stroke-dasharray:none;stroke-dashoffset:0;stroke-opacity:1" />
        <ellipse
           cy="14.481204"
           cx="-119.16373"
           id="circle3235"
           style="opacity:1;fill:#0095ad;fill-opacity:1;stroke:none;stroke-width:3.27248573;stroke-linecap:round;stroke-linejoin:round;stroke-miterlimit:4;stroke-dasharray:none;stroke-dashoffset:0;stroke-opacity:1"
           rx="9.3501673"
           ry="9.3669271"
           transform="scale(-1,1)" />
        <path
           style="opacity:1;fill:#00c5d4;fill-opacity:1;stroke:#00ffff;stroke-width:3.27248573;stroke-linecap:round;stroke-linejoin:round;stroke-miterlimit:4;stroke-dasharray:none;stroke-dashoffset:0;stroke-opacity:1"
           d="m 118.89803,16.569604 a 6.3729134,6.3898097 1.748186 0 1 0.0742,6.95644 6.3729134,6.3898097 1.748186 0 1 -8.79747,1.965231 6.3729134,6.3898097 1.748186 0 1 -2.94488,-5.484364 6.3729134,6.3898097 1.748186 0 0 1.8845,1.863849 6.3729134,6.3898097 1.748186 0 0 8.79728,-1.965151 6.3729134,6.3898097 1.748186 0 0 0.98639,-3.336005 z"
           id="path3239"
           inkscape:connector-curvature="0" />
        <ellipse
           ry="6.9428678"
           rx="6.934073"
           transform="matrix(-0.84329053,-0.53745799,-0.53549627,0.84453759,0,0)"
           style="opacity:1;fill:#0095ad;fill-opacity:1;stroke:none;stroke-width:3.27249026;stroke-linecap:round;stroke-linejoin:round;stroke-miterlimit:4;stroke-dasharray:none;stroke-dashoffset:0;stroke-opacity:1"
           id="ellipse3241"
           cx="-105.78649"
           cy="-44.863373" />
        <ellipse
           inkscape:export-ydpi="293.84"
           inkscape:export-xdpi="293.84"
           inkscape:export-filename="/home/siqueira/Pictures/flusp.png"
           ry="18.216719"
           rx="17.798044"
           cy="-15.220191"
           cx="-106.18867"
           id="ellipse3317"
           style="opacity:1;fill:#ffb500;fill-opacity:1;stroke:none;stroke-width:1.8699919;stroke-linecap:round;stroke-linejoin:round;stroke-miterlimit:4;stroke-dasharray:none;stroke-dashoffset:0;stroke-opacity:1"
           transform="scale(-1,1)" />
        <ellipse
           ry="13.668159"
           rx="13.643703"
           inkscape:export-ydpi="293.84"
           inkscape:export-xdpi="293.84"
           inkscape:export-filename="/home/siqueira/Pictures/flusp.png"
           style="opacity:1;fill:#ffffff;fill-opacity:1;stroke:none;stroke-width:1.8699919;stroke-linecap:round;stroke-linejoin:round;stroke-miterlimit:4;stroke-dasharray:none;stroke-dashoffset:0;stroke-opacity:1"
           id="ellipse3319"
           cx="-108.02254"
           cy="-13.769811"
           transform="scale(-1,1)" />
        <path
           inkscape:export-ydpi="293.84"
           inkscape:export-xdpi="293.84"
           inkscape:export-filename="/home/siqueira/Pictures/flusp.png"
           sodipodi:nodetypes="ccsscc"
           inkscape:connector-curvature="0"
           id="path3321"
           d="m 129.89009,-12.887697 c -6.8656,14.0111673 -2.55716,23.587667 12.23012,19.7956649 3.59546,-1.0042932 6.67587,-5.8374137 9.05971,-4.5298592 2.92839,1.6062857 4.58895,10.1645563 4.58895,10.1645563 0.30293,0.806574 1.55275,-0.693739 1.55275,-1.555492 2.30211,-22.905209 -18.41815,-23.255991 -27.43153,-23.87487 z"
           style="opacity:1;fill:#382810;fill-opacity:1;stroke:#000000;stroke-width:1.8699919;stroke-linecap:round;stroke-linejoin:round;stroke-miterlimit:4;stroke-dasharray:none;stroke-dashoffset:0;stroke-opacity:1" />
        <path
           inkscape:export-ydpi="293.84"
           inkscape:export-xdpi="293.84"
           inkscape:export-filename="/home/siqueira/Pictures/flusp.png"
           style="opacity:0.7;fill:#cccccc;fill-opacity:1;stroke:none;stroke-width:0.12369218px;stroke-linecap:butt;stroke-linejoin:miter;stroke-opacity:1"
           d="m 98.060147,-17.944679 c -4.65909,5.716711 0.750264,14.4867812 8.610243,14.7485894 -2.12179,-5.1701116 -4.53211,-11.1108704 -8.610243,-14.7485894 z"
           id="path3323"
           inkscape:connector-curvature="0"
           sodipodi:nodetypes="ccc" />
        <path
           inkscape:export-ydpi="293.84"
           inkscape:export-xdpi="293.84"
           inkscape:export-filename="/home/siqueira/Pictures/flusp.png"
           sodipodi:nodetypes="ccc"
           inkscape:connector-curvature="0"
           id="path3325"
           d="m 98.264901,-17.944679 c -3.288909,6.677536 1.05497,14.7004886 8.610239,14.7485894 -2.12179,-5.1701116 -4.5321,-11.1108704 -8.610239,-14.7485894 z"
           style="fill:#9c9c9c;stroke:none;stroke-width:0.12369218px;stroke-linecap:butt;stroke-linejoin:miter;stroke-opacity:1" />
        <ellipse
           ry="10.187239"
           rx="10.169011"
           inkscape:export-ydpi="293.84"
           inkscape:export-xdpi="293.84"
           inkscape:export-filename="/home/siqueira/Pictures/flusp.png"
           cy="-13.769811"
           cx="-108.02254"
           id="ellipse3327"
           style="opacity:1;fill:#e37404;fill-opacity:1;stroke:#000000;stroke-width:1.40249395;stroke-linecap:round;stroke-linejoin:round;stroke-miterlimit:4;stroke-dasharray:none;stroke-dashoffset:0;stroke-opacity:1"
           transform="scale(-1,1)" />
        <ellipse
           inkscape:export-ydpi="293.84"
           inkscape:export-xdpi="293.84"
           inkscape:export-filename="/home/siqueira/Pictures/flusp.png"
           ry="7.6011152"
           rx="7.3845224"
           cy="-13.769811"
           cx="-108.02254"
           id="ellipse3329"
           style="opacity:1;fill:#000000;fill-opacity:1;stroke:none;stroke-width:1.8699919;stroke-linecap:round;stroke-linejoin:round;stroke-miterlimit:4;stroke-dasharray:none;stroke-dashoffset:0;stroke-opacity:1"
           transform="scale(-1,1)" />
        <path
           inkscape:export-ydpi="293.84"
           inkscape:export-xdpi="293.84"
           inkscape:export-filename="/home/siqueira/Pictures/flusp.png"
           sodipodi:nodetypes="cscc"
           inkscape:connector-curvature="0"
           id="path3331"
           d="m 101.94497,-16.481401 c 0.45219,0.510246 0.60972,-0.554359 1.71335,-1.734207 1.13379,-1.212068 2.33698,-1.086484 2.07003,-1.85031 -0.73023,-1.148339 -4.44946,2.542329 -3.78338,3.584517 z"
           style="opacity:1;fill:#ffffff;fill-opacity:1;stroke:none;stroke-width:1.8699919;stroke-linecap:round;stroke-linejoin:round;stroke-miterlimit:4;stroke-dasharray:none;stroke-dashoffset:0;stroke-opacity:1" />
        <path
           inkscape:export-ydpi="293.84"
           inkscape:export-xdpi="293.84"
           inkscape:export-filename="/home/siqueira/Pictures/flusp.png"
           sodipodi:nodetypes="cc"
           inkscape:connector-curvature="0"
           id="path3337"
           d="M 112.41189,-6.3786335 C 107.936,-3.5576198 99.773461,-5.5580109 99.416274,-14.012464"
           style="fill:none;stroke:#ffffff;stroke-width:2.10374093;stroke-linecap:round;stroke-linejoin:round;stroke-miterlimit:4;stroke-dasharray:none;stroke-opacity:1" />
        <path
           inkscape:export-ydpi="293.84"
           inkscape:export-xdpi="293.84"
           inkscape:export-filename="/home/siqueira/Pictures/flusp.png"
           sodipodi:nodetypes="cc"
           inkscape:connector-curvature="0"
           id="path3339"
           d="m 126.93117,-4.0922972 c -0.68077,3.84800866 0.20687,9.0823125 -2.41298,11.2163006"
           style="fill:none;stroke:#000000;stroke-width:1.8699919;stroke-linecap:round;stroke-linejoin:round;stroke-miterlimit:4;stroke-dasharray:none;stroke-opacity:1" />
        <path
           inkscape:connector-curvature="0"
           id="path3341"
           d="m 110.88467,21.389756 a 6.3731397,6.389583 4.893152 0 1 -1.10928,6.867499 6.3731397,6.389583 4.893152 0 1 -9.00304,0.435885 6.3731397,6.389583 4.893152 0 1 -1.969718,-5.906598 6.3731397,6.389583 4.893152 0 0 1.540188,2.158092 6.3731397,6.389583 4.893152 0 0 9.00285,-0.435848 6.3731397,6.389583 4.893152 0 0 1.539,-3.11903 z"
           style="opacity:1;fill:#0095ad;fill-opacity:1;stroke:#00ffff;stroke-width:3.27248573;stroke-linecap:round;stroke-linejoin:round;stroke-miterlimit:4;stroke-dasharray:none;stroke-dashoffset:0;stroke-opacity:1" />
        <ellipse
           cy="-53.773476"
           cx="-93.034279"
           id="ellipse3343"
           style="opacity:1;fill:#0095ad;fill-opacity:1;stroke:none;stroke-width:3.27249146;stroke-linecap:round;stroke-linejoin:round;stroke-miterlimit:4;stroke-dasharray:none;stroke-dashoffset:0;stroke-opacity:1"
           transform="matrix(-0.73940772,-0.67325792,-0.67141797,0.74107889,0,0)"
           rx="6.9361138"
           ry="6.9408288" />
        <path
           inkscape:connector-curvature="0"
           id="path3347"
           d="m 92.134669,20.463343 a 6.3729929,6.3897293 3.240734 0 1 -0.484865,6.939882 6.3729929,6.3897293 3.240734 0 1 -8.926793,1.249608 6.3729929,6.3897293 3.240734 0 1 -2.494779,-5.703957 6.3729929,6.3897293 3.240734 0 0 1.728664,2.009732 6.3729929,6.3897293 3.240734 0 0 8.926607,-1.249609 6.3729929,6.3897293 3.240734 0 0 1.251166,-3.245656 z"
           style="opacity:1;fill:#0095ad;fill-opacity:1;stroke:#00ffff;stroke-width:3.27248573;stroke-linecap:round;stroke-linejoin:round;stroke-miterlimit:4;stroke-dasharray:none;stroke-dashoffset:0;stroke-opacity:1" />
        <ellipse
           cy="-34.233589"
           cx="-82.402847"
           id="ellipse3349"
           style="opacity:1;fill:#0095ad;fill-opacity:1;stroke:none;stroke-width:3.2724905;stroke-linecap:round;stroke-linejoin:round;stroke-miterlimit:4;stroke-dasharray:none;stroke-dashoffset:0;stroke-opacity:1"
           transform="matrix(-0.79727457,-0.60361682,-0.60168128,0.79873627,0,0)"
           rx="6.9350095"
           ry="6.9419327" />
        <path
           style="opacity:1;fill:#0095ad;fill-opacity:1;stroke:#00ffff;stroke-width:3.27248573;stroke-linecap:round;stroke-linejoin:round;stroke-miterlimit:4;stroke-dasharray:none;stroke-dashoffset:0;stroke-opacity:1"
           d="m 100.25833,23.309794 a 6.3737919,6.388929 8.982304 0 1 -2.689762,6.413824 6.3737919,6.388929 8.982304 0 1 -8.85298,-1.696629 6.3737919,6.388929 8.982304 0 1 -0.528436,-6.204938 6.3737919,6.388929 8.982304 0 0 0.990587,2.460349 6.3737919,6.388929 8.982304 0 0 8.852796,1.696559 6.3737919,6.388929 8.982304 0 0 2.227795,-2.669165 z"
           id="path3353"
           inkscape:connector-curvature="0" />
        <ellipse
           ry="6.9379354"
           rx="6.9390044"
           transform="matrix(-0.56046144,-0.82818052,-0.82685155,0.56242023,0,0)"
           style="opacity:1;fill:#0095ad;fill-opacity:1;stroke:none;stroke-width:3.27249074;stroke-linecap:round;stroke-linejoin:round;stroke-miterlimit:4;stroke-dasharray:none;stroke-dashoffset:0;stroke-opacity:1"
           id="ellipse3355"
           cx="-72.158157"
           cy="-64.90522" />
      </g>
      <path
         style="opacity:1;fill:#0095ad;fill-opacity:1;stroke:#000000;stroke-width:3.27248573;stroke-linecap:round;stroke-linejoin:round;stroke-miterlimit:4;stroke-dasharray:none;stroke-dashoffset:0;stroke-opacity:1"
         d="M 74.522619,25.684609 C 86.175464,26.650857 70.232011,74.194902 60.736255,74.48218 49.083399,73.515922 65.026861,25.971881 74.522619,25.684609 Z"
         id="path3229"
         inkscape:connector-curvature="0"
         sodipodi:nodetypes="ccc"
         inkscape:export-filename="/home/siqueira/Pictures/flusp.png"
         inkscape:export-xdpi="293.84"
         inkscape:export-ydpi="293.84" />
      <path
         style="opacity:1;fill:#0095ad;fill-opacity:1;stroke:#00ffff;stroke-width:3.27248526;stroke-linecap:round;stroke-linejoin:round;stroke-miterlimit:4;stroke-dasharray:none;stroke-dashoffset:0;stroke-opacity:1"
         d="m 62.768584,47.252988 a 2.3456856,5.7038766 17.271554 0 0 -1.871431,5.921035 2.3456856,5.7038766 17.271554 0 0 2.56949,2.640434 2.3456856,5.7038766 17.271554 0 0 2.489482,-4.351289 2.3456856,5.7038766 17.271554 0 1 -1.156514,1.381802 2.3456856,5.7038766 17.271554 0 1 -2.569438,-2.640391 2.3456856,5.7038766 17.271554 0 1 0.538411,-2.951591 z"
         id="path3245"
         inkscape:connector-curvature="0" />
      <ellipse
         ry="5.4113679"
         rx="3.9603975"
         transform="matrix(0.76835772,-0.64002063,-0.04605763,0.99893878,0,0)"
         style="opacity:1;fill:#0095ad;fill-opacity:1;stroke:none;stroke-width:3.80917358;stroke-linecap:round;stroke-linejoin:round;stroke-miterlimit:4;stroke-dasharray:none;stroke-dashoffset:0;stroke-opacity:1"
         id="ellipse3247"
         cx="89.902824"
         cy="107.57169" />
      <path
         inkscape:connector-curvature="0"
         id="path3251"
         d="m 65.567634,40.925286 a 2.3456856,5.7038766 17.271554 0 0 -1.871431,5.92104 2.3456856,5.7038766 17.271554 0 0 2.569494,2.640428 2.3456856,5.7038766 17.271554 0 0 2.489483,-4.351284 2.3456856,5.7038766 17.271554 0 1 -1.156515,1.381803 2.3456856,5.7038766 17.271554 0 1 -2.569438,-2.640392 2.3456856,5.7038766 17.271554 0 1 0.538407,-2.951595 z"
         style="opacity:1;fill:#0095ad;fill-opacity:1;stroke:#00ffff;stroke-width:3.27248526;stroke-linecap:round;stroke-linejoin:round;stroke-miterlimit:4;stroke-dasharray:none;stroke-dashoffset:0;stroke-opacity:1" />
      <ellipse
         cy="103.4115"
         cx="93.296349"
         id="ellipse3253"
         style="opacity:1;fill:#0095ad;fill-opacity:1;stroke:none;stroke-width:3.80917358;stroke-linecap:round;stroke-linejoin:round;stroke-miterlimit:4;stroke-dasharray:none;stroke-dashoffset:0;stroke-opacity:1"
         transform="matrix(0.76835772,-0.64002063,-0.04605763,0.99893878,0,0)"
         rx="3.9603975"
         ry="5.4113679" />
      <g
         style="stroke-width:0.95046163"
         transform="matrix(-0.46788199,-0.00697087,-0.0172388,0.5168187,-147.29547,-110.35426)"
         id="g266">
        <path
           style="opacity:1;fill:#0095ad;fill-opacity:1;stroke:#00ffff;stroke-width:6.65323067;stroke-linecap:round;stroke-linejoin:round;stroke-miterlimit:4;stroke-dasharray:none;stroke-dashoffset:0;stroke-opacity:1"
           d="m -455.98994,316.61723 a 12.202006,5.0170594 79.096687 0 1 2.57286,13.03268 12.202006,5.0170594 79.096687 0 1 -6.08894,5.00092 12.202006,5.0170594 79.096687 0 1 -4.25929,-9.84294 12.202006,5.0170594 79.096687 0 0 2.13052,3.21292 12.202006,5.0170594 79.096687 0 0 6.0888,-5.00079 12.202006,5.0170594 79.096687 0 0 -0.44395,-6.40279 z"
           id="path3257"
           inkscape:connector-curvature="0" />
        <ellipse
           ry="11.575127"
           rx="8.4731579"
           transform="matrix(-0.69243855,-0.72147686,-0.0650747,0.9978804,0,0)"
           style="opacity:1;fill:#0095ad;fill-opacity:1;stroke:none;stroke-width:7.74511337;stroke-linecap:round;stroke-linejoin:round;stroke-miterlimit:4;stroke-dasharray:none;stroke-dashoffset:0;stroke-opacity:1"
           id="ellipse3259"
           cx="592.98535"
           cy="751.37769" />
      </g>
      <path
         style="opacity:1;fill:#0095ad;fill-opacity:1;stroke:#00ffff;stroke-width:3.27248526;stroke-linecap:round;stroke-linejoin:round;stroke-miterlimit:4;stroke-dasharray:none;stroke-dashoffset:0;stroke-opacity:1"
         d="m 61.706865,62.336984 a 2.3456856,5.7038766 17.271554 0 0 -1.871431,5.92104 2.3456856,5.7038766 17.271554 0 0 2.569488,2.640433 2.3456856,5.7038766 17.271554 0 0 2.489483,-4.351294 2.3456856,5.7038766 17.271554 0 1 -1.156515,1.381812 2.3456856,5.7038766 17.271554 0 1 -2.569438,-2.6404 2.3456856,5.7038766 17.271554 0 1 0.538413,-2.951591 z"
         id="path3263"
         inkscape:connector-curvature="0" />
      <ellipse
         ry="5.4113679"
         rx="3.9603975"
         transform="matrix(0.76835772,-0.64002063,-0.04605763,0.99893878,0,0)"
         style="opacity:1;fill:#0095ad;fill-opacity:1;stroke:none;stroke-width:3.80917358;stroke-linecap:round;stroke-linejoin:round;stroke-miterlimit:4;stroke-dasharray:none;stroke-dashoffset:0;stroke-opacity:1"
         id="ellipse3265"
         cx="89.407074"
         cy="122.35416" />
      <path
         inkscape:connector-curvature="0"
         id="path3269"
         d="m 63.830291,60.403118 a 2.3456856,5.7038766 17.271554 0 0 -1.871432,5.921039 2.3456856,5.7038766 17.271554 0 0 2.569495,2.640434 2.3456856,5.7038766 17.271554 0 0 2.489482,-4.351294 2.3456856,5.7038766 17.271554 0 1 -1.156515,1.381812 2.3456856,5.7038766 17.271554 0 1 -2.569438,-2.640396 2.3456856,5.7038766 17.271554 0 1 0.538408,-2.951595 z"
         style="opacity:1;fill:#0095ad;fill-opacity:1;stroke:#00ffff;stroke-width:3.27248526;stroke-linecap:round;stroke-linejoin:round;stroke-miterlimit:4;stroke-dasharray:none;stroke-dashoffset:0;stroke-opacity:1" />
      <ellipse
         cy="122.18224"
         cx="92.160393"
         id="ellipse3271"
         style="opacity:1;fill:#0095ad;fill-opacity:1;stroke:none;stroke-width:3.80917358;stroke-linecap:round;stroke-linejoin:round;stroke-miterlimit:4;stroke-dasharray:none;stroke-dashoffset:0;stroke-opacity:1"
         transform="matrix(0.76835772,-0.64002063,-0.04605763,0.99893878,0,0)"
         rx="3.9603975"
         ry="5.4113679" />
      <path
         inkscape:connector-curvature="0"
         id="path3275"
         d="m 63.058157,52.184283 a 2.3456856,5.7038766 17.271554 0 0 -1.871431,5.921035 2.3456856,5.7038766 17.271554 0 0 2.569495,2.640434 2.3456856,5.7038766 17.271554 0 0 2.489481,-4.351289 2.3456856,5.7038766 17.271554 0 1 -1.156514,1.381807 2.3456856,5.7038766 17.271554 0 1 -2.569439,-2.640396 2.3456856,5.7038766 17.271554 0 1 0.538408,-2.951591 z"
         style="opacity:1;fill:#0095ad;fill-opacity:1;stroke:#00ffff;stroke-width:3.27248526;stroke-linecap:round;stroke-linejoin:round;stroke-miterlimit:4;stroke-dasharray:none;stroke-dashoffset:0;stroke-opacity:1" />
      <ellipse
         cy="112.95653"
         cx="90.60247"
         id="ellipse3277"
         style="opacity:1;fill:#0095ad;fill-opacity:1;stroke:none;stroke-width:3.80917358;stroke-linecap:round;stroke-linejoin:round;stroke-miterlimit:4;stroke-dasharray:none;stroke-dashoffset:0;stroke-opacity:1"
         transform="matrix(0.76835772,-0.64002063,-0.04605763,0.99893878,0,0)"
         rx="3.9603975"
         ry="5.4113679" />
      <path
         style="opacity:1;fill:#0095ad;fill-opacity:1;stroke:#00ffff;stroke-width:3.27248526;stroke-linecap:round;stroke-linejoin:round;stroke-miterlimit:4;stroke-dasharray:none;stroke-dashoffset:0;stroke-opacity:1"
         d="m 67.208473,48.219919 a 2.3456856,5.7038766 17.271554 0 0 -1.871431,5.92104 2.3456856,5.7038766 17.271554 0 0 2.569494,2.640428 2.3456856,5.7038766 17.271554 0 0 2.489483,-4.351289 2.3456856,5.7038766 17.271554 0 1 -1.156515,1.381808 2.3456856,5.7038766 17.271554 0 1 -2.56944,-2.640396 2.3456856,5.7038766 17.271554 0 1 0.538409,-2.951591 z"
         id="path3281"
         inkscape:connector-curvature="0" />
      <ellipse
         ry="5.4113679"
         rx="3.9603975"
         transform="matrix(0.76835772,-0.64002063,-0.04605763,0.99893878,0,0)"
         style="opacity:1;fill:#0095ad;fill-opacity:1;stroke:none;stroke-width:3.80917358;stroke-linecap:round;stroke-linejoin:round;stroke-miterlimit:4;stroke-dasharray:none;stroke-dashoffset:0;stroke-opacity:1"
         id="ellipse3283"
         cx="95.972336"
         cy="112.42847" />
      <path
         style="opacity:1;fill:#0095ad;fill-opacity:1;stroke:#00ffff;stroke-width:3.27248526;stroke-linecap:round;stroke-linejoin:round;stroke-miterlimit:4;stroke-dasharray:none;stroke-dashoffset:0;stroke-opacity:1"
         d="m 67.196294,54.268829 a 2.3456856,5.7038766 17.271554 0 0 -1.871431,5.92104 2.3456856,5.7038766 17.271554 0 0 2.569495,2.640433 2.3456856,5.7038766 17.271554 0 0 2.489482,-4.351294 2.3456856,5.7038766 17.271554 0 1 -1.156519,1.381803 2.3456856,5.7038766 17.271554 0 1 -2.56944,-2.640392 2.3456856,5.7038766 17.271554 0 1 0.538413,-2.95159 z"
         id="path3287"
         inkscape:connector-curvature="0" />
      <ellipse
         ry="5.4113679"
         rx="3.9603975"
         transform="matrix(0.76835772,-0.64002063,-0.04605763,0.99893878,0,0)"
         style="opacity:1;fill:#0095ad;fill-opacity:1;stroke:none;stroke-width:3.80917358;stroke-linecap:round;stroke-linejoin:round;stroke-miterlimit:4;stroke-dasharray:none;stroke-dashoffset:0;stroke-opacity:1"
         id="ellipse3289"
         cx="96.333336"
         cy="118.7151" />
      <g
         transform="matrix(-0.45924894,0.08743446,0.08743446,0.45924894,-175.40617,-45.876537)"
         id="g262">
        <path
           style="opacity:1;fill:#0095ad;fill-opacity:1;stroke:#00ffff;stroke-width:6.99999857;stroke-linecap:round;stroke-linejoin:round;stroke-miterlimit:4;stroke-dasharray:none;stroke-dashoffset:0;stroke-opacity:1"
           d="m -476.79469,294.19456 a 12.200858,5.0175308 72.728446 0 1 4.00308,12.66538 12.200858,5.0175308 72.728446 0 1 -5.49626,5.648 12.200858,5.0175308 72.728446 0 1 -5.32513,-9.3076 12.200858,5.0175308 72.728446 0 0 2.47385,2.95574 12.200858,5.0175308 72.728446 0 0 5.49615,-5.64793 12.200858,5.0175308 72.728446 0 0 -1.15169,-6.31359 z"
           id="path3293"
           inkscape:connector-curvature="0" />
        <ellipse
           ry="11.575169"
           rx="8.4714746"
           transform="matrix(-0.76835772,-0.64002064,0.04605763,0.99893878,0,0)"
           style="opacity:1;fill:#0095ad;fill-opacity:1;stroke:none;stroke-width:8.14799976;stroke-linecap:round;stroke-linejoin:round;stroke-miterlimit:4;stroke-dasharray:none;stroke-dashoffset:0;stroke-opacity:1"
           id="ellipse3295"
           cx="667.95673"
           cy="728.17383" />
      </g>
      <path
         inkscape:connector-curvature="0"
         id="path3299"
         d="m 68.173655,35.391227 a 2.3456856,5.7038766 17.271554 0 0 -1.871432,5.92104 2.3456856,5.7038766 17.271554 0 0 2.569495,2.640429 2.3456856,5.7038766 17.271554 0 0 2.489483,-4.351285 2.3456856,5.7038766 17.271554 0 1 -1.156515,1.381803 2.3456856,5.7038766 17.271554 0 1 -2.569439,-2.640391 2.3456856,5.7038766 17.271554 0 1 0.538408,-2.951596 z"
         style="opacity:1;fill:#0095ad;fill-opacity:1;stroke:#00ffff;stroke-width:3.27248526;stroke-linecap:round;stroke-linejoin:round;stroke-miterlimit:4;stroke-dasharray:none;stroke-dashoffset:0;stroke-opacity:1" />
      <ellipse
         cy="99.910095"
         cx="96.478142"
         id="ellipse3301"
         style="opacity:1;fill:#0095ad;fill-opacity:1;stroke:none;stroke-width:3.80917358;stroke-linecap:round;stroke-linejoin:round;stroke-miterlimit:4;stroke-dasharray:none;stroke-dashoffset:0;stroke-opacity:1"
         transform="matrix(0.76835772,-0.64002063,-0.04605763,0.99893878,0,0)"
         rx="3.9603975"
         ry="5.4113679" />
      <path
         style="opacity:1;fill:#0095ad;fill-opacity:1;stroke:#00ffff;stroke-width:3.27248526;stroke-linecap:round;stroke-linejoin:round;stroke-miterlimit:4;stroke-dasharray:none;stroke-dashoffset:0;stroke-opacity:1"
         d="m 70.779666,38.260622 a 2.3456856,5.7038766 17.271554 0 0 -1.871432,5.92104 2.3456856,5.7038766 17.271554 0 0 2.569496,2.640429 2.3456856,5.7038766 17.271554 0 0 2.489483,-4.351285 2.3456856,5.7038766 17.271554 0 1 -1.156516,1.381803 2.3456856,5.7038766 17.271554 0 1 -2.569443,-2.640391 2.3456856,5.7038766 17.271554 0 1 0.538412,-2.951596 z"
         id="path3305"
         inkscape:connector-curvature="0" />
      <ellipse
         ry="5.4113679"
         rx="3.9603975"
         transform="matrix(0.76835772,-0.64002063,-0.04605763,0.99893878,0,0)"
         style="opacity:1;fill:#0095ad;fill-opacity:1;stroke:none;stroke-width:3.80917358;stroke-linecap:round;stroke-linejoin:round;stroke-miterlimit:4;stroke-dasharray:none;stroke-dashoffset:0;stroke-opacity:1"
         id="ellipse3307"
         cx="100.1843"
         cy="105.15713" />
      <g
         transform="matrix(-0.46029149,-0.08176868,-0.08176868,0.46029149,-127.73114,-129.1465)"
         id="g270">
        <path
           inkscape:connector-curvature="0"
           id="path3311"
           d="m -479.15593,261.10184 a 12.200858,5.0175308 72.728446 0 1 4.00308,12.66538 12.200858,5.0175308 72.728446 0 1 -5.49627,5.648 12.200858,5.0175308 72.728446 0 1 -5.32512,-9.3076 12.200858,5.0175308 72.728446 0 0 2.47384,2.95574 12.200858,5.0175308 72.728446 0 0 5.49615,-5.64792 12.200858,5.0175308 72.728446 0 0 -1.15168,-6.3136 z"
           style="opacity:1;fill:#0095ad;fill-opacity:1;stroke:#00ffff;stroke-width:6.99999857;stroke-linecap:round;stroke-linejoin:round;stroke-miterlimit:4;stroke-dasharray:none;stroke-dashoffset:0;stroke-opacity:1" />
        <ellipse
           cy="695.77039"
           cx="669.08752"
           id="ellipse3313"
           style="opacity:1;fill:#0095ad;fill-opacity:1;stroke:none;stroke-width:8.14799976;stroke-linecap:round;stroke-linejoin:round;stroke-miterlimit:4;stroke-dasharray:none;stroke-dashoffset:0;stroke-opacity:1"
           transform="matrix(-0.76835772,-0.64002064,0.04605763,0.99893878,0,0)"
           rx="8.4714746"
           ry="11.575169" />
      </g>
      <path
         style="opacity:1;fill:#0095ad;fill-opacity:1;stroke:#00ffff;stroke-width:3.27248573;stroke-linecap:round;stroke-linejoin:round;stroke-miterlimit:4;stroke-dasharray:none;stroke-dashoffset:0;stroke-opacity:1"
         d="m 70.655518,41.996876 a 2.3453449,5.7047059 4.869975 0 0 -0.555327,6.185793 2.3453449,5.7047059 4.869975 0 0 3.076604,2.024462 2.3453449,5.7047059 4.869975 0 0 1.496176,-4.786132 2.3453449,5.7047059 4.869975 0 1 -0.832502,1.598811 2.3453449,5.7047059 4.869975 0 1 -3.076539,-2.024426 2.3453449,5.7047059 4.869975 0 1 -0.108412,-2.998508 z"
         id="path3359"
         inkscape:connector-curvature="0" />
      <ellipse
         ry="5.411109"
         rx="3.9619229"
         transform="matrix(0.6125906,-0.79040038,0.16966954,0.98550101,0,0)"
         style="opacity:1;fill:#0095ad;fill-opacity:1;stroke:none;stroke-width:3.80981588;stroke-linecap:round;stroke-linejoin:round;stroke-miterlimit:4;stroke-dasharray:none;stroke-dashoffset:0;stroke-opacity:1"
         id="ellipse3361"
         cx="86.717117"
         cy="114.50889" />
      <path
         inkscape:connector-curvature="0"
         id="path3365"
         d="m 71.623075,35.052721 a 5.7047714,2.3453179 88.363895 0 0 0.149669,6.208963 5.7047714,2.3453179 88.363895 0 0 3.28624,1.661244 5.7047714,2.3453179 88.363895 0 0 0.943799,-4.925404 5.7047714,2.3453179 88.363895 0 1 -0.645825,1.683198 5.7047714,2.3453179 88.363895 0 1 -3.28617,-1.661212 5.7047714,2.3453179 88.363895 0 1 -0.447713,-2.966789 z"
         style="opacity:1;fill:#0095ad;fill-opacity:1;stroke:#00ffff;stroke-width:3.27248573;stroke-linecap:round;stroke-linejoin:round;stroke-miterlimit:4;stroke-dasharray:none;stroke-dashoffset:0;stroke-opacity:1" />
      <ellipse
         cy="110.32731"
         cx="81.226707"
         id="ellipse3367"
         style="opacity:1;fill:#0095ad;fill-opacity:1;stroke:none;stroke-width:3.79056954;stroke-linecap:round;stroke-linejoin:round;stroke-miterlimit:4;stroke-dasharray:none;stroke-dashoffset:0;stroke-opacity:1"
         transform="matrix(0.52490008,-0.85116386,0.28444465,0.95869246,0,0)"
         rx="4.3005333"
         ry="5.8541017" />
      <g
         transform="matrix(0.46749799,0,0,0.46749799,324.39297,-90.80852)"
         style="fill:#ffffff;stroke:#ffffff;stroke-width:1;stroke-miterlimit:4;stroke-dasharray:none"
         id="g7900">
        <g
           style="fill:#ffffff;stroke:#ffffff;stroke-width:1;stroke-miterlimit:4;stroke-dasharray:none"
           id="g7874"
           transform="matrix(-0.98394623,-0.17846515,-0.17846515,0.98394623,-542.81505,12.827862)">
          <g
             style="fill:#ffffff;stroke:#ffffff;stroke-width:1.37080729;stroke-miterlimit:4;stroke-dasharray:none"
             id="g7854"
             transform="matrix(0.72949717,0,0,0.72949717,-291.29412,691.91068)">
            <path
               style="fill:#ffffff;stroke:#ffffff;stroke-width:1.37080729;stroke-miterlimit:4;stroke-dasharray:none"
               d="m 218.90586,-498.18 c -0.33592,2.90026 3.22153,6.17121 8.02217,7.37609 5.11906,1.2848 8.90434,8.51967 6.65573,12.72124 -1.15073,2.15015 -4.18698,2.29084 -5.86276,0.27165 -7.72834,-7.1361 -16.32791,-12.40849 -24.69628,-11.39453 -9.36802,1.34657 -13.99213,3.97417 -20.31286,11.54259 -3.89701,4.66627 -4.87515,5.32013 -7.29971,4.87966 -1.53984,-0.27974 -2.58352,-0.1588 -2.31928,0.26874 0.74772,1.20984 -3.63106,1.2299 -5.08492,0.0233 -0.71285,-0.59161 -1.29609,-2.37056 -1.29609,-3.95321 0,-3.00932 -0.77443,-3.32752 -7.1128,-2.92255 -2.19456,0.14022 -2.71605,-0.34925 -3.25775,-3.05775 -0.79567,-3.97834 0.71675,-6.56221 7.95833,-13.59634 7.67419,-7.45434 13.27431,-7.98632 33.30818,-3.16413 8.91861,2.14673 9.12712,2.1523 11.17531,0.29871 l 2.08713,-1.88882 c -0.79562,-2.69999 6.73564,0.0987 8.0356,2.59535 z m -48.694,23.85797 c -0.33992,-0.55 -0.14148,-1 0.44098,-1 0.58246,0 1.05902,-0.45 1.05902,-1 0,-0.55 -0.9,-1 -2,-1 -1.1,0 -2,0.1882 -2,0.41821 0,1.34117 1.35497,3.58179 2.16601,3.58179 0.52361,0 0.67391,-0.45 0.33399,-1 z m 10.88364,-4.00288 c 1.989,-2.20159 3.61636,-4.34645 3.61636,-4.76637 0,-2.00559 10.82749,-7.07008 16.5,-7.71776 3.3,-0.3768 7.43923,-1.05366 9.19829,-1.50415 1.75907,-0.45049 3.33407,-0.51614 3.5,-0.14588 1.09562,4.34598 10.82395,7.99129 10.82395,7.99129 0.0122,0.35516 0.95411,1.77075 2.09308,3.14575 1.35606,1.63707 1.87697,1.89595 1.50915,0.75 -0.76928,-2.39673 0.27357,-4.75 2.10496,-4.75 1.23369,0 1.284,-0.27889 0.27057,-1.5 -0.68469,-0.825 -1.68428,-1.5 -2.22132,-1.5 -1.77647,0 -8.2576,-3.38917 -9.48138,-4.9581 -0.66149,-0.84805 -1.47875,-2.75214 -1.81615,-4.23131 -0.85158,-3.73342 -3.47535,-3.91876 -6.7463,-0.47657 -2.79838,2.94489 -6.57035,1.72576 -10.14889,1.06607 -6.26802,0.74992 -9.28128,1.03454 -9.28128,1.03454 -10.48036,-0.65625 -12.22401,0.048 -17.16672,6.93323 l -3.49448,4.86786 c -1.02884,3.32614 0.47816,0.10562 -1.02884,3.32614 -0.5169,1.34701 -0.16688,1.5857 1.77966,1.2136 1.73822,-0.33229 2.27735,-0.0834 1.90742,0.88066 -0.82246,2.14329 0.46963,4.34388 2.55053,4.34388 1.05327,0 3.54239,-1.8013 5.53139,-4.00288 z m 50.19716,-4.74965 c -1.15374,-1.15374 -1.74564,0.65318 -0.95886,2.92717 l 0.80455,2.32536 0.36756,-2.33586 c 0.20215,-1.28473 0.10619,-2.59723 -0.21325,-2.91667 z m -70.75748,-0.58034 c 0.19138,-0.98676 -0.31876,-1.66713 -1.25,-1.66713 -0.92763,0 -1.57332,0.855 -1.57332,2.08333 0,2.43705 2.33677,2.09257 2.82332,-0.4162 z m 9.6389,-2.41713 c 4.59628,-8.74722 6.60533,-10.41561 14.19526,-11.78826 4.81236,-0.16925 2.97082,-1.21575 -1.58097,-2.55696 -2.62126,-0.78535 -4.78354,-0.79149 -7.64235,-0.0217 -4.37847,1.179 -10.79003,5.42771 -9.75407,6.46367 0.35929,0.35928 0.0674,0.65324 -0.64875,0.65324 -0.7161,0 -2.39389,1.17817 -3.72842,2.61815 l -2.42641,2.61814 2.06174,1.92081 c 1.13396,1.05645 2.06175,2.57828 2.06175,3.38186 0,0.88913 0.972,1.46104 2.48315,1.46104 1.94539,0 3.02369,-1.02869 4.97907,-4.75 z"
               id="path7852"
               inkscape:connector-curvature="0"
               sodipodi:nodetypes="cscccscccscssscccssssssscsccccccscsccccccccccscscccscssccccccsscssscc" />
          </g>
          <path
             sodipodi:nodetypes="cscccccscsc"
             inkscape:connector-curvature="0"
             id="path7856"
             d="m -171.98673,340.0902 c -0.3528,-0.35279 -0.64145,-0.88085 -0.64145,-1.17345 0,-0.2926 -0.61493,-1.17388 -1.36651,-1.95834 l -1.36652,-1.42634 1.76742,-1.44523 c 0.97208,-0.79487 2.6907,-2.29386 3.81915,-3.33106 3.20114,-2.94232 7.94682,-4.48738 11.73598,-4.14379 3.06588,0.278 6.14562,1.91977 3.69964,1.91977 -1.80151,0 -7.73891,1.45477 -9.08358,2.71805 -0.68661,0.64503 -1.99286,2.50111 -2.90279,4.12462 -2.75423,4.91413 -4.23202,6.14511 -5.66134,4.71577 z"
             style="fill:#ffffff;fill-opacity:1;stroke:#ffffff;stroke-width:1;stroke-linecap:round;stroke-miterlimit:4;stroke-dasharray:none" />
          <g
             style="fill:#ffffff;stroke:#ffffff;stroke-width:1;stroke-miterlimit:4;stroke-dasharray:none"
             transform="translate(-7.5595234,-4.063244)"
             id="g7860">
            <path
               style="fill:#ffffff;fill-opacity:1;stroke:#ffffff;stroke-width:3.77952766;stroke-linecap:round;stroke-miterlimit:4;stroke-dasharray:none"
               d="m -535.8243,1518.8625 c -1.65482,-1.8873 -3.41112,-5.6387 -3.41112,-7.286 0,-1.3075 0.44273,-1.464 4.14286,-1.464 4.09718,0 5.85714,0.8053 5.85714,2.68 0,0.5312 -0.99233,1.3117 -2.20517,1.7345 -2.02521,0.706 -2.16829,0.9652 -1.75335,3.1771 0.51445,2.7423 -0.75244,3.3002 -2.63036,1.1584 z"
               id="path7858"
               inkscape:connector-curvature="0"
               transform="matrix(0.26458333,0,0,0.26458333,-26.104076,-55.681719)" />
          </g>
          <path
             transform="matrix(0.26458333,0,0,0.26458333,-26.104076,-55.681719)"
             inkscape:connector-curvature="0"
             id="path7862"
             d="m -366.59011,1502.5656 c -1.9678,-7.0069 -1.36345,-11.0782 1.31455,-8.8557 1.10561,0.9176 1.35342,7.9822 0.39996,11.4026 -0.43039,1.544 -0.66249,1.1992 -1.71451,-2.5469 z"
             style="fill:#ffffff;fill-opacity:1;stroke:#ffffff;stroke-width:3.77952766;stroke-linecap:round;stroke-miterlimit:4;stroke-dasharray:none" />
          <g
             style="fill:#ffffff;stroke:#ffffff;stroke-width:1;stroke-miterlimit:4;stroke-dasharray:none"
             id="g7866"
             transform="translate(-7.5595234,-5.6507441)">
            <path
               transform="matrix(0.26458333,0,0,0.26458333,-26.104076,-55.681719)"
               inkscape:connector-curvature="0"
               id="path7864"
               d="m -535.8243,1518.8625 c -1.65482,-1.8873 -3.41112,-5.6387 -3.41112,-7.286 0,-1.3075 0.44273,-1.464 4.14286,-1.464 4.09718,0 5.85714,0.8053 5.85714,2.68 0,0.5312 -0.99233,1.3117 -2.20517,1.7345 -2.02521,0.706 -2.16829,0.9652 -1.75335,3.1771 0.51445,2.7423 -0.75244,3.3002 -2.63036,1.1584 z"
               style="fill:#ffffff;fill-opacity:1;stroke:#ffffff;stroke-width:3.77952766;stroke-linecap:round;stroke-miterlimit:4;stroke-dasharray:none" />
          </g>
          <g
             style="fill:#ffffff;stroke:#ffffff;stroke-width:1;stroke-miterlimit:4;stroke-dasharray:none"
             transform="translate(0.37797701,0.17008946)"
             id="g7870">
            <path
               style="fill:#ffffff;fill-opacity:1;stroke:#ffffff;stroke-width:3.77952766;stroke-linecap:round;stroke-miterlimit:4;stroke-dasharray:none"
               d="m -535.8243,1518.8625 c -1.65482,-1.8873 -3.41112,-5.6387 -3.41112,-7.286 0,-1.3075 0.44273,-1.464 4.14286,-1.464 4.09718,0 5.85714,0.8053 5.85714,2.68 0,0.5312 -0.99233,1.3117 -2.20517,1.7345 -2.02521,0.706 -2.16829,0.9652 -1.75335,3.1771 0.51445,2.7423 -0.75244,3.3002 -2.63036,1.1584 z"
               id="path7868"
               inkscape:connector-curvature="0"
               transform="matrix(0.26458333,0,0,0.26458333,-26.104076,-55.681719)" />
          </g>
          <path
             transform="matrix(0.26458333,0,0,0.26458333,-26.104076,-55.681719)"
             inkscape:connector-curvature="0"
             id="path7872"
             d="m -520.5474,1517.1304 c -2.55192,-0.9091 -3.21346,-1.6413 -3.42353,-3.789 -0.10709,-1.0948 -0.55985,-2.5603 -1.04761,-3.3908 -0.85046,-1.4481 -0.85316,-1.4833 -0.2709,-3.53 0.99797,-3.5082 0.1384,-4.0094 -5.43562,-3.1699 -5.34929,0.8056 -6.05871,0 -3.9399,-4.4798 0.59461,-1.2569 1.14881,-2.9444 1.23156,-3.75 0.28649,-2.7891 1.20418,-4.3951 7.55593,-13.224 7.3216,-10.1769 11.62421,-15.395 14.63098,-17.744 6.68357,-5.2217 11.63086,-6.2892 27.41749,-5.9161 9.84655,0.2327 13.37962,-0.019 31.11809,-2.2158 2.0653,-0.2557 3.26504,-0.1613 6.89978,0.543 10.14963,1.9668 15.12777,1.7879 19.97331,-0.7179 0.58379,-0.3019 2.59989,-1.9628 4.48022,-3.6908 7.06993,-6.4976 11.3831,-7.7436 14.73071,-4.2555 1.5067,1.5699 1.96819,2.5975 3.54767,7.8992 1.15028,3.861 3.30303,8.4325 4.8331,10.2633 3.38957,4.0559 19.38099,12.3811 25.63462,13.3456 2.60046,0.401 6.26517,3.3758 7.82182,6.3492 0.67564,1.2905 0.25622,1.6357 -1.997,1.6436 -4.9578,0.017 -7.98769,6.0074 -6.30014,12.4556 0.32698,1.2495 0.48999,2.3745 0.36225,2.5 -0.56259,0.5532 -7.68602,-8.1606 -9.18345,-11.2336 -0.52803,-1.0837 -1.04765,-1.5779 -2.00765,-1.9094 -0.71238,-0.2461 -3.86667,-1.705 -7.00953,-3.2422 -10.76003,-5.2626 -17.89524,-10.8347 -20.42272,-15.9487 -0.9599,-1.9422 -1.52905,-2.6892 -2.17198,-2.8505 -1.24558,-0.3127 -5.2509,0.1182 -8.7155,0.9374 -4.40483,1.0416 -12.34275,2.3872 -21.04684,3.5679 -10.53928,1.4296 -15.99389,2.8656 -25.96079,6.8343 -8.66498,3.4504 -17.79567,8.3484 -21.25219,11.4004 -1.15128,1.0166 -2.11222,2.3467 -2.93085,4.0569 -2.60722,5.4467 -13.2939,17.19 -19.10627,20.9952 -2.9519,1.9326 -4.86654,2.8156 -6.03544,2.7836 -0.31443,-0.01 -1.20527,-0.2414 -1.97962,-0.5172 z"
             style="fill:#ffffff;fill-opacity:1;stroke:#ffffff;stroke-width:3.77952766;stroke-linecap:round;stroke-miterlimit:4;stroke-dasharray:none;stroke-opacity:1" />
        </g>
        <g
           style="fill:#ffffff;stroke:#ffffff;stroke-width:1;stroke-miterlimit:4;stroke-dasharray:none"
           transform="matrix(-0.97485014,-0.22286142,-0.22286142,0.97485014,-564.89045,9.6308926)"
           id="g7898">
          <g
             transform="matrix(0.72949717,0,0,0.72949717,-291.29412,691.91068)"
             id="g7878"
             style="fill:#ffffff;stroke:#ffffff;stroke-width:1.37080717;stroke-miterlimit:4;stroke-dasharray:none">
            <path
               sodipodi:nodetypes="cscccscccscssscccssssssscsccccccscsccccccccccscscccscssccccccsscssscc"
               inkscape:connector-curvature="0"
               id="path7876"
               d="m 218.90586,-498.18 c -0.33592,2.90026 3.22153,6.17121 8.02217,7.37609 5.11906,1.2848 8.90434,8.51967 6.65573,12.72124 -1.15073,2.15015 -4.18698,2.29084 -5.86276,0.27165 -7.72834,-7.1361 -16.32791,-12.40849 -24.69628,-11.39453 -9.36802,1.34657 -13.99213,3.97417 -20.31286,11.54259 -3.89701,4.66627 -4.87515,5.32013 -7.29971,4.87966 -1.53984,-0.27974 -2.58352,-0.1588 -2.31928,0.26874 0.74772,1.20984 -3.63106,1.2299 -5.08492,0.0233 -0.71285,-0.59161 -1.29609,-2.37056 -1.29609,-3.95321 0,-3.00932 -0.77443,-3.32752 -7.1128,-2.92255 -2.19456,0.14022 -2.71605,-0.34925 -3.25775,-3.05775 -0.79567,-3.97834 0.71675,-6.56221 7.95833,-13.59634 7.67419,-7.45434 13.27431,-7.98632 33.30818,-3.16413 8.91861,2.14673 9.12712,2.1523 11.17531,0.29871 l 2.08713,-1.88882 c -0.79562,-2.69999 6.73564,0.0987 8.0356,2.59535 z m -48.694,23.85797 c -0.33992,-0.55 -0.14148,-1 0.44098,-1 0.58246,0 1.05902,-0.45 1.05902,-1 0,-0.55 -0.9,-1 -2,-1 -1.1,0 -2,0.1882 -2,0.41821 0,1.34117 1.35497,3.58179 2.16601,3.58179 0.52361,0 0.67391,-0.45 0.33399,-1 z m 10.88364,-4.00288 c 1.989,-2.20159 3.61636,-4.34645 3.61636,-4.76637 0,-2.00559 10.82749,-7.07008 16.5,-7.71776 3.3,-0.3768 7.43923,-1.05366 9.19829,-1.50415 1.75907,-0.45049 3.33407,-0.51614 3.5,-0.14588 1.09562,4.34598 10.82395,7.99129 10.82395,7.99129 0.0122,0.35516 0.95411,1.77075 2.09308,3.14575 1.35606,1.63707 1.87697,1.89595 1.50915,0.75 -0.76928,-2.39673 0.27357,-4.75 2.10496,-4.75 1.23369,0 1.284,-0.27889 0.27057,-1.5 -0.68469,-0.825 -1.68428,-1.5 -2.22132,-1.5 -1.77647,0 -8.2576,-3.38917 -9.48138,-4.9581 -0.66149,-0.84805 -1.47875,-2.75214 -1.81615,-4.23131 -0.85158,-3.73342 -3.47535,-3.91876 -6.7463,-0.47657 -2.79838,2.94489 -6.57035,1.72576 -10.14889,1.06607 -6.26802,0.74992 -9.28128,1.03454 -9.28128,1.03454 -10.48036,-0.65625 -12.22401,0.048 -17.16672,6.93323 l -3.49448,4.86786 c -1.02884,3.32614 0.47816,0.10562 -1.02884,3.32614 -0.5169,1.34701 -0.16688,1.5857 1.77966,1.2136 1.73822,-0.33229 2.27735,-0.0834 1.90742,0.88066 -0.82246,2.14329 0.46963,4.34388 2.55053,4.34388 1.05327,0 3.54239,-1.8013 5.53139,-4.00288 z m 50.19716,-4.74965 c -1.15374,-1.15374 -1.74564,0.65318 -0.95886,2.92717 l 0.80455,2.32536 0.36756,-2.33586 c 0.20215,-1.28473 0.10619,-2.59723 -0.21325,-2.91667 z m -70.75748,-0.58034 c 0.19138,-0.98676 -0.31876,-1.66713 -1.25,-1.66713 -0.92763,0 -1.57332,0.855 -1.57332,2.08333 0,2.43705 2.33677,2.09257 2.82332,-0.4162 z m 9.6389,-2.41713 c 4.59628,-8.74722 6.60533,-10.41561 14.19526,-11.78826 4.81236,-0.16925 2.97082,-1.21575 -1.58097,-2.55696 -2.62126,-0.78535 -4.78354,-0.79149 -7.64235,-0.0217 -4.37847,1.179 -10.79003,5.42771 -9.75407,6.46367 0.35929,0.35928 0.0674,0.65324 -0.64875,0.65324 -0.7161,0 -2.39389,1.17817 -3.72842,2.61815 l -2.42641,2.61814 2.06174,1.92081 c 1.13396,1.05645 2.06175,2.57828 2.06175,3.38186 0,0.88913 0.972,1.46104 2.48315,1.46104 1.94539,0 3.02369,-1.02869 4.97907,-4.75 z"
               style="fill:#ffffff;stroke:#ffffff;stroke-width:1.37080717;stroke-miterlimit:4;stroke-dasharray:none" />
          </g>
          <path
             style="fill:#ffffff;fill-opacity:1;stroke:#ffffff;stroke-width:1;stroke-linecap:round;stroke-miterlimit:4;stroke-dasharray:none"
             d="m -171.98673,340.0902 c -0.3528,-0.35279 -0.64145,-0.88085 -0.64145,-1.17345 0,-0.2926 -0.61493,-1.17388 -1.36651,-1.95834 l -1.36652,-1.42634 1.76742,-1.44523 c 0.97208,-0.79487 2.6907,-2.29386 3.81915,-3.33106 3.20114,-2.94232 7.94682,-4.48738 11.73598,-4.14379 3.06588,0.278 6.14562,1.91977 3.69964,1.91977 -1.80151,0 -7.73891,1.45477 -9.08358,2.71805 -0.68661,0.64503 -1.99286,2.50111 -2.90279,4.12462 -2.75423,4.91413 -4.23202,6.14511 -5.66134,4.71577 z"
             id="path7880"
             inkscape:connector-curvature="0"
             sodipodi:nodetypes="cscccccscsc" />
          <g
             style="fill:#ffffff;stroke:#ffffff;stroke-width:1;stroke-miterlimit:4;stroke-dasharray:none"
             id="g7884"
             transform="translate(-7.5595234,-4.063244)">
            <path
               transform="matrix(0.26458333,0,0,0.26458333,-26.104076,-55.681719)"
               inkscape:connector-curvature="0"
               id="path7882"
               d="m -535.8243,1518.8625 c -1.65482,-1.8873 -3.41112,-5.6387 -3.41112,-7.286 0,-1.3075 0.44273,-1.464 4.14286,-1.464 4.09718,0 5.85714,0.8053 5.85714,2.68 0,0.5312 -0.99233,1.3117 -2.20517,1.7345 -2.02521,0.706 -2.16829,0.9652 -1.75335,3.1771 0.51445,2.7423 -0.75244,3.3002 -2.63036,1.1584 z"
               style="fill:#ffffff;fill-opacity:1;stroke:#ffffff;stroke-width:3.77952766;stroke-linecap:round;stroke-miterlimit:4;stroke-dasharray:none" />
          </g>
          <path
             style="fill:#ffffff;fill-opacity:1;stroke:#ffffff;stroke-width:3.77952766;stroke-linecap:round;stroke-miterlimit:4;stroke-dasharray:none"
             d="m -366.59011,1502.5656 c -1.9678,-7.0069 -1.36345,-11.0782 1.31455,-8.8557 1.10561,0.9176 1.35342,7.9822 0.39996,11.4026 -0.43039,1.544 -0.66249,1.1992 -1.71451,-2.5469 z"
             id="path7886"
             inkscape:connector-curvature="0"
             transform="matrix(0.26458333,0,0,0.26458333,-26.104076,-55.681719)" />
          <g
             style="fill:#ffffff;stroke:#ffffff;stroke-width:1;stroke-miterlimit:4;stroke-dasharray:none"
             transform="translate(-7.5595234,-5.6507441)"
             id="g7890">
            <path
               style="fill:#ffffff;fill-opacity:1;stroke:#ffffff;stroke-width:3.77952766;stroke-linecap:round;stroke-miterlimit:4;stroke-dasharray:none"
               d="m -535.8243,1518.8625 c -1.65482,-1.8873 -3.41112,-5.6387 -3.41112,-7.286 0,-1.3075 0.44273,-1.464 4.14286,-1.464 4.09718,0 5.85714,0.8053 5.85714,2.68 0,0.5312 -0.99233,1.3117 -2.20517,1.7345 -2.02521,0.706 -2.16829,0.9652 -1.75335,3.1771 0.51445,2.7423 -0.75244,3.3002 -2.63036,1.1584 z"
               id="path7888"
               inkscape:connector-curvature="0"
               transform="matrix(0.26458333,0,0,0.26458333,-26.104076,-55.681719)" />
          </g>
          <g
             style="fill:#ffffff;stroke:#ffffff;stroke-width:1;stroke-miterlimit:4;stroke-dasharray:none"
             id="g7894"
             transform="translate(0.37797701,0.17008946)">
            <path
               transform="matrix(0.26458333,0,0,0.26458333,-26.104076,-55.681719)"
               inkscape:connector-curvature="0"
               id="path7892"
               d="m -535.8243,1518.8625 c -1.65482,-1.8873 -3.41112,-5.6387 -3.41112,-7.286 0,-1.3075 0.44273,-1.464 4.14286,-1.464 4.09718,0 5.85714,0.8053 5.85714,2.68 0,0.5312 -0.99233,1.3117 -2.20517,1.7345 -2.02521,0.706 -2.16829,0.9652 -1.75335,3.1771 0.51445,2.7423 -0.75244,3.3002 -2.63036,1.1584 z"
               style="fill:#ffffff;fill-opacity:1;stroke:#ffffff;stroke-width:3.77952766;stroke-linecap:round;stroke-miterlimit:4;stroke-dasharray:none" />
          </g>
          <path
             style="fill:#ffffff;fill-opacity:1;stroke:#ffffff;stroke-width:3.77952766;stroke-linecap:round;stroke-miterlimit:4;stroke-dasharray:none;stroke-opacity:1"
             d="m -520.5474,1517.1304 c -2.55192,-0.9091 -3.21346,-1.6413 -3.42353,-3.789 -0.10709,-1.0948 -0.55985,-2.5603 -1.04761,-3.3908 -0.85046,-1.4481 -0.85316,-1.4833 -0.2709,-3.53 0.99797,-3.5082 0.1384,-4.0094 -5.43562,-3.1699 -5.34929,0.8056 -6.05871,0 -3.9399,-4.4798 0.59461,-1.2569 1.14881,-2.9444 1.23156,-3.75 0.28649,-2.7891 1.20418,-4.3951 7.55593,-13.224 7.3216,-10.1769 11.62421,-15.395 14.63098,-17.744 6.68357,-5.2217 11.63086,-6.2892 27.41749,-5.9161 9.84655,0.2327 13.37962,-0.019 31.11809,-2.2158 2.0653,-0.2557 3.26504,-0.1613 6.89978,0.543 10.14963,1.9668 15.12777,1.7879 19.97331,-0.7179 0.58379,-0.3019 2.59989,-1.9628 4.48022,-3.6908 7.06993,-6.4976 11.3831,-7.7436 14.73071,-4.2555 1.5067,1.5699 1.96819,2.5975 3.54767,7.8992 1.15028,3.861 3.30303,8.4325 4.8331,10.2633 3.38957,4.0559 19.38099,12.3811 25.63462,13.3456 2.60046,0.401 6.26517,3.3758 7.82182,6.3492 0.67564,1.2905 0.25622,1.6357 -1.997,1.6436 -4.9578,0.017 -7.98769,6.0074 -6.30014,12.4556 0.32698,1.2495 0.48999,2.3745 0.36225,2.5 -0.56259,0.5532 -7.68602,-8.1606 -9.18345,-11.2336 -0.52803,-1.0837 -1.04765,-1.5779 -2.00765,-1.9094 -0.71238,-0.2461 -3.86667,-1.705 -7.00953,-3.2422 -10.76003,-5.2626 -17.89524,-10.8347 -20.42272,-15.9487 -0.9599,-1.9422 -1.52905,-2.6892 -2.17198,-2.8505 -1.24558,-0.3127 -5.2509,0.1182 -8.7155,0.9374 -4.40483,1.0416 -12.34275,2.3872 -21.04684,3.5679 -10.53928,1.4296 -15.99389,2.8656 -25.96079,6.8343 -8.66498,3.4504 -17.79567,8.3484 -21.25219,11.4004 -1.15128,1.0166 -2.11222,2.3467 -2.93085,4.0569 -2.60722,5.4467 -13.2939,17.19 -19.10627,20.9952 -2.9519,1.9326 -4.86654,2.8156 -6.03544,2.7836 -0.31443,-0.01 -1.20527,-0.2414 -1.97962,-0.5172 z"
             id="path7896"
             inkscape:connector-curvature="0"
             transform="matrix(0.26458333,0,0,0.26458333,-26.104076,-55.681719)" />
        </g>
      </g>
      <g
         transform="matrix(0.46749799,0,0,0.46749799,324.40489,-91.513318)"
         id="g7850">
        <g
           transform="matrix(-0.98394623,-0.17846515,-0.17846515,0.98394623,-542.81505,12.827862)"
           id="g4725">
          <g
             transform="matrix(0.72949717,0,0,0.72949717,-291.29412,691.91068)"
             id="g4705"
             style="stroke-width:0.36269274">
            <path
               sodipodi:nodetypes="cscccscccscssscccssssssscsccccccscsccccccccccscscccscssccccccsscssscc"
               inkscape:connector-curvature="0"
               id="path4703"
               d="m 218.90586,-498.18 c -0.33592,2.90026 3.22153,6.17121 8.02217,7.37609 5.11906,1.2848 8.90434,8.51967 6.65573,12.72124 -1.15073,2.15015 -4.18698,2.29084 -5.86276,0.27165 -7.72834,-7.1361 -16.32791,-12.40849 -24.69628,-11.39453 -9.36802,1.34657 -13.99213,3.97417 -20.31286,11.54259 -3.89701,4.66627 -4.87515,5.32013 -7.29971,4.87966 -1.53984,-0.27974 -2.58352,-0.1588 -2.31928,0.26874 0.74772,1.20984 -3.63106,1.2299 -5.08492,0.0233 -0.71285,-0.59161 -1.29609,-2.37056 -1.29609,-3.95321 0,-3.00932 -0.77443,-3.32752 -7.1128,-2.92255 -2.19456,0.14022 -2.71605,-0.34925 -3.25775,-3.05775 -0.79567,-3.97834 0.71675,-6.56221 7.95833,-13.59634 7.67419,-7.45434 13.27431,-7.98632 33.30818,-3.16413 8.91861,2.14673 9.12712,2.1523 11.17531,0.29871 l 2.08713,-1.88882 c -0.79562,-2.69999 6.73564,0.0987 8.0356,2.59535 z m -48.694,23.85797 c -0.33992,-0.55 -0.14148,-1 0.44098,-1 0.58246,0 1.05902,-0.45 1.05902,-1 0,-0.55 -0.9,-1 -2,-1 -1.1,0 -2,0.1882 -2,0.41821 0,1.34117 1.35497,3.58179 2.16601,3.58179 0.52361,0 0.67391,-0.45 0.33399,-1 z m 10.88364,-4.00288 c 1.989,-2.20159 3.61636,-4.34645 3.61636,-4.76637 0,-2.00559 10.82749,-7.07008 16.5,-7.71776 3.3,-0.3768 7.43923,-1.05366 9.19829,-1.50415 1.75907,-0.45049 3.33407,-0.51614 3.5,-0.14588 1.09562,4.34598 10.82395,7.99129 10.82395,7.99129 0.0122,0.35516 0.95411,1.77075 2.09308,3.14575 1.35606,1.63707 1.87697,1.89595 1.50915,0.75 -0.76928,-2.39673 0.27357,-4.75 2.10496,-4.75 1.23369,0 1.284,-0.27889 0.27057,-1.5 -0.68469,-0.825 -1.68428,-1.5 -2.22132,-1.5 -1.77647,0 -8.2576,-3.38917 -9.48138,-4.9581 -0.66149,-0.84805 -1.47875,-2.75214 -1.81615,-4.23131 -0.85158,-3.73342 -3.47535,-3.91876 -6.7463,-0.47657 -2.79838,2.94489 -6.57035,1.72576 -10.14889,1.06607 -6.26802,0.74992 -9.28128,1.03454 -9.28128,1.03454 -10.48036,-0.65625 -12.22401,0.048 -17.16672,6.93323 l -3.49448,4.86786 c -1.02884,3.32614 0.47816,0.10562 -1.02884,3.32614 -0.5169,1.34701 -0.16688,1.5857 1.77966,1.2136 1.73822,-0.33229 2.27735,-0.0834 1.90742,0.88066 -0.82246,2.14329 0.46963,4.34388 2.55053,4.34388 1.05327,0 3.54239,-1.8013 5.53139,-4.00288 z m 50.19716,-4.74965 c -1.15374,-1.15374 -1.74564,0.65318 -0.95886,2.92717 l 0.80455,2.32536 0.36756,-2.33586 c 0.20215,-1.28473 0.10619,-2.59723 -0.21325,-2.91667 z m -70.75748,-0.58034 c 0.19138,-0.98676 -0.31876,-1.66713 -1.25,-1.66713 -0.92763,0 -1.57332,0.855 -1.57332,2.08333 0,2.43705 2.33677,2.09257 2.82332,-0.4162 z m 9.6389,-2.41713 c 4.59628,-8.74722 6.60533,-10.41561 14.19526,-11.78826 4.81236,-0.16925 2.97082,-1.21575 -1.58097,-2.55696 -2.62126,-0.78535 -4.78354,-0.79149 -7.64235,-0.0217 -4.37847,1.179 -10.79003,5.42771 -9.75407,6.46367 0.35929,0.35928 0.0674,0.65324 -0.64875,0.65324 -0.7161,0 -2.39389,1.17817 -3.72842,2.61815 l -2.42641,2.61814 2.06174,1.92081 c 1.13396,1.05645 2.06175,2.57828 2.06175,3.38186 0,0.88913 0.972,1.46104 2.48315,1.46104 1.94539,0 3.02369,-1.02869 4.97907,-4.75 z"
               style="fill:#000000;stroke-width:0.36269274" />
          </g>
          <path
             style="fill:#693a20;fill-opacity:1;stroke:#000000;stroke-width:1;stroke-linecap:round;stroke-miterlimit:4;stroke-dasharray:none"
             d="m -171.98673,340.0902 c -0.3528,-0.35279 -0.64145,-0.88085 -0.64145,-1.17345 0,-0.2926 -0.61493,-1.17388 -1.36651,-1.95834 l -1.36652,-1.42634 1.76742,-1.44523 c 0.97208,-0.79487 2.6907,-2.29386 3.81915,-3.33106 3.20114,-2.94232 7.94682,-4.48738 11.73598,-4.14379 3.06588,0.278 6.14562,1.91977 3.69964,1.91977 -1.80151,0 -7.73891,1.45477 -9.08358,2.71805 -0.68661,0.64503 -1.99286,2.50111 -2.90279,4.12462 -2.75423,4.91413 -4.23202,6.14511 -5.66134,4.71577 z"
             id="path4707"
             inkscape:connector-curvature="0"
             sodipodi:nodetypes="cscccccscsc" />
          <g
             id="g4711"
             transform="translate(-7.5595234,-4.063244)">
            <path
               transform="matrix(0.26458333,0,0,0.26458333,-26.104076,-55.681719)"
               inkscape:connector-curvature="0"
               id="path4709"
               d="m -535.8243,1518.8625 c -1.65482,-1.8873 -3.41112,-5.6387 -3.41112,-7.286 0,-1.3075 0.44273,-1.464 4.14286,-1.464 4.09718,0 5.85714,0.8053 5.85714,2.68 0,0.5312 -0.99233,1.3117 -2.20517,1.7345 -2.02521,0.706 -2.16829,0.9652 -1.75335,3.1771 0.51445,2.7423 -0.75244,3.3002 -2.63036,1.1584 z"
               style="fill:#382810;fill-opacity:1;stroke:#000000;stroke-width:7.55905533;stroke-linecap:round;stroke-miterlimit:4;stroke-dasharray:none" />
          </g>
          <path
             style="fill:#382810;fill-opacity:1;stroke:#000000;stroke-width:7.55905533;stroke-linecap:round;stroke-miterlimit:4;stroke-dasharray:none"
             d="m -366.59011,1502.5656 c -1.9678,-7.0069 -1.36345,-11.0782 1.31455,-8.8557 1.10561,0.9176 1.35342,7.9822 0.39996,11.4026 -0.43039,1.544 -0.66249,1.1992 -1.71451,-2.5469 z"
             id="path4713"
             inkscape:connector-curvature="0"
             transform="matrix(0.26458333,0,0,0.26458333,-26.104076,-55.681719)" />
          <g
             transform="translate(-7.5595234,-5.6507441)"
             id="g4717">
            <path
               style="fill:#382810;fill-opacity:1;stroke:#000000;stroke-width:7.55905533;stroke-linecap:round;stroke-miterlimit:4;stroke-dasharray:none"
               d="m -535.8243,1518.8625 c -1.65482,-1.8873 -3.41112,-5.6387 -3.41112,-7.286 0,-1.3075 0.44273,-1.464 4.14286,-1.464 4.09718,0 5.85714,0.8053 5.85714,2.68 0,0.5312 -0.99233,1.3117 -2.20517,1.7345 -2.02521,0.706 -2.16829,0.9652 -1.75335,3.1771 0.51445,2.7423 -0.75244,3.3002 -2.63036,1.1584 z"
               id="path4715"
               inkscape:connector-curvature="0"
               transform="matrix(0.26458333,0,0,0.26458333,-26.104076,-55.681719)" />
          </g>
          <g
             id="g4721"
             transform="translate(0.37797701,0.17008946)">
            <path
               transform="matrix(0.26458333,0,0,0.26458333,-26.104076,-55.681719)"
               inkscape:connector-curvature="0"
               id="path4719"
               d="m -535.8243,1518.8625 c -1.65482,-1.8873 -3.41112,-5.6387 -3.41112,-7.286 0,-1.3075 0.44273,-1.464 4.14286,-1.464 4.09718,0 5.85714,0.8053 5.85714,2.68 0,0.5312 -0.99233,1.3117 -2.20517,1.7345 -2.02521,0.706 -2.16829,0.9652 -1.75335,3.1771 0.51445,2.7423 -0.75244,3.3002 -2.63036,1.1584 z"
               style="fill:#382810;fill-opacity:1;stroke:#000000;stroke-width:7.55905533;stroke-linecap:round;stroke-miterlimit:4;stroke-dasharray:none" />
          </g>
          <path
             style="fill:#693a20;fill-opacity:1;stroke:#000000;stroke-width:3.77952766;stroke-linecap:round;stroke-miterlimit:4;stroke-dasharray:none;stroke-opacity:1"
             d="m -520.5474,1517.1304 c -2.55192,-0.9091 -3.21346,-1.6413 -3.42353,-3.789 -0.10709,-1.0948 -0.55985,-2.5603 -1.04761,-3.3908 -0.85046,-1.4481 -0.85316,-1.4833 -0.2709,-3.53 0.99797,-3.5082 0.1384,-4.0094 -5.43562,-3.1699 -5.34929,0.8056 -6.05871,0 -3.9399,-4.4798 0.59461,-1.2569 1.14881,-2.9444 1.23156,-3.75 0.28649,-2.7891 1.20418,-4.3951 7.55593,-13.224 7.3216,-10.1769 11.62421,-15.395 14.63098,-17.744 6.68357,-5.2217 11.63086,-6.2892 27.41749,-5.9161 9.84655,0.2327 13.37962,-0.019 31.11809,-2.2158 2.0653,-0.2557 3.26504,-0.1613 6.89978,0.543 10.14963,1.9668 15.12777,1.7879 19.97331,-0.7179 0.58379,-0.3019 2.59989,-1.9628 4.48022,-3.6908 7.06993,-6.4976 11.3831,-7.7436 14.73071,-4.2555 1.5067,1.5699 1.96819,2.5975 3.54767,7.8992 1.15028,3.861 3.30303,8.4325 4.8331,10.2633 3.38957,4.0559 19.38099,12.3811 25.63462,13.3456 2.60046,0.401 6.26517,3.3758 7.82182,6.3492 0.67564,1.2905 0.25622,1.6357 -1.997,1.6436 -4.9578,0.017 -7.98769,6.0074 -6.30014,12.4556 0.32698,1.2495 0.48999,2.3745 0.36225,2.5 -0.56259,0.5532 -7.68602,-8.1606 -9.18345,-11.2336 -0.52803,-1.0837 -1.04765,-1.5779 -2.00765,-1.9094 -0.71238,-0.2461 -3.86667,-1.705 -7.00953,-3.2422 -10.76003,-5.2626 -17.89524,-10.8347 -20.42272,-15.9487 -0.9599,-1.9422 -1.52905,-2.6892 -2.17198,-2.8505 -1.24558,-0.3127 -5.2509,0.1182 -8.7155,0.9374 -4.40483,1.0416 -12.34275,2.3872 -21.04684,3.5679 -10.53928,1.4296 -15.99389,2.8656 -25.96079,6.8343 -8.66498,3.4504 -17.79567,8.3484 -21.25219,11.4004 -1.15128,1.0166 -2.11222,2.3467 -2.93085,4.0569 -2.60722,5.4467 -13.2939,17.19 -19.10627,20.9952 -2.9519,1.9326 -4.86654,2.8156 -6.03544,2.7836 -0.31443,-0.01 -1.20527,-0.2414 -1.97962,-0.5172 z"
             id="path4723"
             inkscape:connector-curvature="0"
             transform="matrix(0.26458333,0,0,0.26458333,-26.104076,-55.681719)" />
        </g>
        <g
           id="g4701"
           transform="matrix(-0.97485014,-0.22286142,-0.22286142,0.97485014,-564.89045,9.6308926)">
          <g
             style="stroke-width:0.36269274"
             id="g18"
             transform="matrix(0.72949717,0,0,0.72949717,-291.29412,691.91068)">
            <path
               style="fill:#000000;stroke-width:0.36269274"
               d="m 218.90586,-498.18 c -0.33592,2.90026 3.22153,6.17121 8.02217,7.37609 5.11906,1.2848 8.90434,8.51967 6.65573,12.72124 -1.15073,2.15015 -4.18698,2.29084 -5.86276,0.27165 -7.72834,-7.1361 -16.32791,-12.40849 -24.69628,-11.39453 -9.36802,1.34657 -13.99213,3.97417 -20.31286,11.54259 -3.89701,4.66627 -4.87515,5.32013 -7.29971,4.87966 -1.53984,-0.27974 -2.58352,-0.1588 -2.31928,0.26874 0.74772,1.20984 -3.63106,1.2299 -5.08492,0.0233 -0.71285,-0.59161 -1.29609,-2.37056 -1.29609,-3.95321 0,-3.00932 -0.77443,-3.32752 -7.1128,-2.92255 -2.19456,0.14022 -2.71605,-0.34925 -3.25775,-3.05775 -0.79567,-3.97834 0.71675,-6.56221 7.95833,-13.59634 7.67419,-7.45434 13.27431,-7.98632 33.30818,-3.16413 8.91861,2.14673 9.12712,2.1523 11.17531,0.29871 l 2.08713,-1.88882 c -0.79562,-2.69999 6.73564,0.0987 8.0356,2.59535 z m -48.694,23.85797 c -0.33992,-0.55 -0.14148,-1 0.44098,-1 0.58246,0 1.05902,-0.45 1.05902,-1 0,-0.55 -0.9,-1 -2,-1 -1.1,0 -2,0.1882 -2,0.41821 0,1.34117 1.35497,3.58179 2.16601,3.58179 0.52361,0 0.67391,-0.45 0.33399,-1 z m 10.88364,-4.00288 c 1.989,-2.20159 3.61636,-4.34645 3.61636,-4.76637 0,-2.00559 10.82749,-7.07008 16.5,-7.71776 3.3,-0.3768 7.43923,-1.05366 9.19829,-1.50415 1.75907,-0.45049 3.33407,-0.51614 3.5,-0.14588 1.09562,4.34598 10.82395,7.99129 10.82395,7.99129 0.0122,0.35516 0.95411,1.77075 2.09308,3.14575 1.35606,1.63707 1.87697,1.89595 1.50915,0.75 -0.76928,-2.39673 0.27357,-4.75 2.10496,-4.75 1.23369,0 1.284,-0.27889 0.27057,-1.5 -0.68469,-0.825 -1.68428,-1.5 -2.22132,-1.5 -1.77647,0 -8.2576,-3.38917 -9.48138,-4.9581 -0.66149,-0.84805 -1.47875,-2.75214 -1.81615,-4.23131 -0.85158,-3.73342 -3.47535,-3.91876 -6.7463,-0.47657 -2.79838,2.94489 -6.57035,1.72576 -10.14889,1.06607 -6.26802,0.74992 -9.28128,1.03454 -9.28128,1.03454 -10.48036,-0.65625 -12.22401,0.048 -17.16672,6.93323 l -3.49448,4.86786 c -1.02884,3.32614 0.47816,0.10562 -1.02884,3.32614 -0.5169,1.34701 -0.16688,1.5857 1.77966,1.2136 1.73822,-0.33229 2.27735,-0.0834 1.90742,0.88066 -0.82246,2.14329 0.46963,4.34388 2.55053,4.34388 1.05327,0 3.54239,-1.8013 5.53139,-4.00288 z m 50.19716,-4.74965 c -1.15374,-1.15374 -1.74564,0.65318 -0.95886,2.92717 l 0.80455,2.32536 0.36756,-2.33586 c 0.20215,-1.28473 0.10619,-2.59723 -0.21325,-2.91667 z m -70.75748,-0.58034 c 0.19138,-0.98676 -0.31876,-1.66713 -1.25,-1.66713 -0.92763,0 -1.57332,0.855 -1.57332,2.08333 0,2.43705 2.33677,2.09257 2.82332,-0.4162 z m 9.6389,-2.41713 c 4.59628,-8.74722 6.60533,-10.41561 14.19526,-11.78826 4.81236,-0.16925 2.97082,-1.21575 -1.58097,-2.55696 -2.62126,-0.78535 -4.78354,-0.79149 -7.64235,-0.0217 -4.37847,1.179 -10.79003,5.42771 -9.75407,6.46367 0.35929,0.35928 0.0674,0.65324 -0.64875,0.65324 -0.7161,0 -2.39389,1.17817 -3.72842,2.61815 l -2.42641,2.61814 2.06174,1.92081 c 1.13396,1.05645 2.06175,2.57828 2.06175,3.38186 0,0.88913 0.972,1.46104 2.48315,1.46104 1.94539,0 3.02369,-1.02869 4.97907,-4.75 z"
               id="path12-6"
               inkscape:connector-curvature="0"
               sodipodi:nodetypes="cscccscccscssscccssssssscsccccccscsccccccccccscscccscssccccccsscssscc" />
          </g>
          <path
             sodipodi:nodetypes="cscccccscsc"
             inkscape:connector-curvature="0"
             id="path4655"
             d="m -171.98673,340.0902 c -0.3528,-0.35279 -0.64145,-0.88085 -0.64145,-1.17345 0,-0.2926 -0.61493,-1.17388 -1.36651,-1.95834 l -1.36652,-1.42634 1.76742,-1.44523 c 0.97208,-0.79487 2.6907,-2.29386 3.81915,-3.33106 3.20114,-2.94232 7.94682,-4.48738 11.73598,-4.14379 3.06588,0.278 6.14562,1.91977 3.69964,1.91977 -1.80151,0 -7.73891,1.45477 -9.08358,2.71805 -0.68661,0.64503 -1.99286,2.50111 -2.90279,4.12462 -2.75423,4.91413 -4.23202,6.14511 -5.66134,4.71577 z"
             style="fill:#693a20;fill-opacity:1;stroke:#000000;stroke-width:1;stroke-linecap:round;stroke-miterlimit:4;stroke-dasharray:none" />
          <g
             transform="translate(-7.5595234,-4.063244)"
             id="g4670">
            <path
               style="fill:#382810;fill-opacity:1;stroke:#000000;stroke-width:7.55905533;stroke-linecap:round;stroke-miterlimit:4;stroke-dasharray:none"
               d="m -535.8243,1518.8625 c -1.65482,-1.8873 -3.41112,-5.6387 -3.41112,-7.286 0,-1.3075 0.44273,-1.464 4.14286,-1.464 4.09718,0 5.85714,0.8053 5.85714,2.68 0,0.5312 -0.99233,1.3117 -2.20517,1.7345 -2.02521,0.706 -2.16829,0.9652 -1.75335,3.1771 0.51445,2.7423 -0.75244,3.3002 -2.63036,1.1584 z"
               id="path4665"
               inkscape:connector-curvature="0"
               transform="matrix(0.26458333,0,0,0.26458333,-26.104076,-55.681719)" />
          </g>
          <path
             transform="matrix(0.26458333,0,0,0.26458333,-26.104076,-55.681719)"
             inkscape:connector-curvature="0"
             id="path4667"
             d="m -366.59011,1502.5656 c -1.9678,-7.0069 -1.36345,-11.0782 1.31455,-8.8557 1.10561,0.9176 1.35342,7.9822 0.39996,11.4026 -0.43039,1.544 -0.66249,1.1992 -1.71451,-2.5469 z"
             style="fill:#382810;fill-opacity:1;stroke:#000000;stroke-width:7.55905533;stroke-linecap:round;stroke-miterlimit:4;stroke-dasharray:none" />
          <g
             id="g4674"
             transform="translate(-7.5595234,-5.6507441)">
            <path
               transform="matrix(0.26458333,0,0,0.26458333,-26.104076,-55.681719)"
               inkscape:connector-curvature="0"
               id="path4672"
               d="m -535.8243,1518.8625 c -1.65482,-1.8873 -3.41112,-5.6387 -3.41112,-7.286 0,-1.3075 0.44273,-1.464 4.14286,-1.464 4.09718,0 5.85714,0.8053 5.85714,2.68 0,0.5312 -0.99233,1.3117 -2.20517,1.7345 -2.02521,0.706 -2.16829,0.9652 -1.75335,3.1771 0.51445,2.7423 -0.75244,3.3002 -2.63036,1.1584 z"
               style="fill:#382810;fill-opacity:1;stroke:#000000;stroke-width:7.55905533;stroke-linecap:round;stroke-miterlimit:4;stroke-dasharray:none" />
          </g>
          <g
             transform="translate(0.37797701,0.17008946)"
             id="g4686">
            <path
               style="fill:#382810;fill-opacity:1;stroke:#000000;stroke-width:7.55905533;stroke-linecap:round;stroke-miterlimit:4;stroke-dasharray:none"
               d="m -535.8243,1518.8625 c -1.65482,-1.8873 -3.41112,-5.6387 -3.41112,-7.286 0,-1.3075 0.44273,-1.464 4.14286,-1.464 4.09718,0 5.85714,0.8053 5.85714,2.68 0,0.5312 -0.99233,1.3117 -2.20517,1.7345 -2.02521,0.706 -2.16829,0.9652 -1.75335,3.1771 0.51445,2.7423 -0.75244,3.3002 -2.63036,1.1584 z"
               id="path4684"
               inkscape:connector-curvature="0"
               transform="matrix(0.26458333,0,0,0.26458333,-26.104076,-55.681719)" />
          </g>
          <path
             transform="matrix(0.26458333,0,0,0.26458333,-26.104076,-55.681719)"
             inkscape:connector-curvature="0"
             id="path4688"
             d="m -520.5474,1517.1304 c -2.55192,-0.9091 -3.21346,-1.6413 -3.42353,-3.789 -0.10709,-1.0948 -0.55985,-2.5603 -1.04761,-3.3908 -0.85046,-1.4481 -0.85316,-1.4833 -0.2709,-3.53 0.99797,-3.5082 0.1384,-4.0094 -5.43562,-3.1699 -5.34929,0.8056 -6.05871,0 -3.9399,-4.4798 0.59461,-1.2569 1.14881,-2.9444 1.23156,-3.75 0.28649,-2.7891 1.20418,-4.3951 7.55593,-13.224 7.3216,-10.1769 11.62421,-15.395 14.63098,-17.744 6.68357,-5.2217 11.63086,-6.2892 27.41749,-5.9161 9.84655,0.2327 13.37962,-0.019 31.11809,-2.2158 2.0653,-0.2557 3.26504,-0.1613 6.89978,0.543 10.14963,1.9668 15.12777,1.7879 19.97331,-0.7179 0.58379,-0.3019 2.59989,-1.9628 4.48022,-3.6908 7.06993,-6.4976 11.3831,-7.7436 14.73071,-4.2555 1.5067,1.5699 1.96819,2.5975 3.54767,7.8992 1.15028,3.861 3.30303,8.4325 4.8331,10.2633 3.38957,4.0559 19.38099,12.3811 25.63462,13.3456 2.60046,0.401 6.26517,3.3758 7.82182,6.3492 0.67564,1.2905 0.25622,1.6357 -1.997,1.6436 -4.9578,0.017 -7.98769,6.0074 -6.30014,12.4556 0.32698,1.2495 0.48999,2.3745 0.36225,2.5 -0.56259,0.5532 -7.68602,-8.1606 -9.18345,-11.2336 -0.52803,-1.0837 -1.04765,-1.5779 -2.00765,-1.9094 -0.71238,-0.2461 -3.86667,-1.705 -7.00953,-3.2422 -10.76003,-5.2626 -17.89524,-10.8347 -20.42272,-15.9487 -0.9599,-1.9422 -1.52905,-2.6892 -2.17198,-2.8505 -1.24558,-0.3127 -5.2509,0.1182 -8.7155,0.9374 -4.40483,1.0416 -12.34275,2.3872 -21.04684,3.5679 -10.53928,1.4296 -15.99389,2.8656 -25.96079,6.8343 -8.66498,3.4504 -17.79567,8.3484 -21.25219,11.4004 -1.15128,1.0166 -2.11222,2.3467 -2.93085,4.0569 -2.60722,5.4467 -13.2939,17.19 -19.10627,20.9952 -2.9519,1.9326 -4.86654,2.8156 -6.03544,2.7836 -0.31443,-0.01 -1.20527,-0.2414 -1.97962,-0.5172 z"
             style="fill:#693a20;fill-opacity:1;stroke:#000000;stroke-width:3.77952766;stroke-linecap:round;stroke-miterlimit:4;stroke-dasharray:none;stroke-opacity:1" />
        </g>
      </g>
    </g>
  </g>
</svg>
